R for Political Science - 第3回講義資料
…
Code 44

ls()

[1] "my_data" "my_vec1" "my_vec2" "my_vec3" "my_vec4" "my_vec5" "x"      
[8] "y"      

　問題なくmy_dataというオブジェクトが生成されていることが分かる。それではデータの中身を確認してみよう。

Code 45

my_data # または、print(my_data)

# A tibble: 47 × 13
      ID Pref   Zaisei Over65 Under30 Jimin Minshin Komei Kyosan Ishin Shamin
   <dbl> <chr>   <dbl>  <dbl>   <dbl> <dbl>   <dbl> <dbl>  <dbl> <dbl>  <dbl>
 1     1 北海道  0.419   29.1    24.7  32.8    30.6 13.4    3.43 11.4    1.68
 2     2 青森県  0.332   30.1    23.9  40.4    24.6 12.8    3.82  8.92   3.41
 3     3 岩手県  0.341   30.4    24.5  34.9    22.4  8.61   5.16 11.2    5.29
 4     4 宮城県  0.596   25.8    27.3  36.7    25.4 13.4    3.97  9.99   3.62
 5     5 秋田県  0.299   33.8    21.4  43.5    22.7 11.2    5.17  7.56   5.12
 6     6 山形県  0.342   30.8    24.8  42.5    21.5 11.8    4.3   7.6    5.2 
 7     7 福島県  0.509   28.7    25.2  33.8    28.3 11.0    3.43 10.4    3.24
 8     8 茨城県  0.633   26.8    26.6  40.6    19.0 15.0    6.67 10.1    2.88
 9     9 栃木県  0.622   25.9    26.8  38.8    21.6 12.4   10.9   7      2.05
10    10 群馬県  0.603   27.6    26.6  42.1    19.3 13.8    5.61 10      2.44
# ℹ 37 more rows
# ℹ 2 more variables: Region2 <dbl>, Region6 <dbl>
…
　これは出力された内容以外にも36行が更にあり（つまり、36行は省略されているだけである）、Reiwa、NHK、Region2とRegion6という名の列も更にあることを意味する。データは問題なく47行13列であることが分かる。

　もし、20行を出力したい場合はprint(オブジェクト名, n = 20)と入力する。

Code 46

print(my_data, n = 20)

# A tibble: 47 × 13
      ID Pref     Zaisei Over65 Under30 Jimin Minshin Komei Kyosan Ishin Shamin
   <dbl> <chr>     <dbl>  <dbl>   <dbl> <dbl>   <dbl> <dbl>  <dbl> <dbl>  <dbl>
 1     1 北海道    0.419   29.1    24.7  32.8    30.6 13.4    3.43 11.4    1.68
 2     2 青森県    0.332   30.1    23.9  40.4    24.6 12.8    3.82  8.92   3.41
 3     3 岩手県    0.341   30.4    24.5  34.9    22.4  8.61   5.16 11.2    5.29
 4     4 宮城県    0.596   25.8    27.3  36.7    25.4 13.4    3.97  9.99   3.62
 5     5 秋田県    0.299   33.8    21.4  43.5    22.7 11.2    5.17  7.56   5.12
 6     6 山形県    0.342   30.8    24.8  42.5    21.5 11.8    4.3   7.6    5.2 
 7     7 福島県    0.509   28.7    25.2  33.8    28.3 11.0    3.43 10.4    3.24
 8     8 茨城県    0.633   26.8    26.6  40.6    19.0 15.0    6.67 10.1    2.88
 9     9 栃木県    0.622   25.9    26.8  38.8    21.6 12.4   10.9   7      2.05
10    10 群馬県    0.603   27.6    26.6  42.1    19.3 13.8    5.61 10      2.44
11    11 埼玉県    0.765   24.8    27.7  32.3    20.4 16      7.23 13.9    1.91
12    12 千葉県    0.777   25.9    26.7  37.8    21.7 14.0    5.46 11.3    2.01
13    13 東京都    1.00    22.7    27.4  34.4    19.8 11.4    7.34 14.2    2.82
14    14 神奈川県  0.917   23.9    27.8  34.9    21.5 12.2    7.77 12.5    2.79
15    15 新潟県    0.435   29.9    25.2  43.7    25.2  8.27   4.39  8      3.76
16    16 富山県    0.453   30.5    24.9  44.2    24.2  9.81   5.06  5.79   5.02
17    17 石川県    0.468   27.9    27.2  48.1    18.5 11      6.36  7.07   2.36
18    18 福井県    0.378   28.6    26.7  45.3    17.5 10.9   13.1   5.66   2.09
19    19 山梨県    0.379   28.4    26.4  37.4    28.0 12.8    4.32  9.2    1.67
20    20 長野県    0.476   30.1    25.5  35.3    27.7 10.7    4.23 12.6    3.59
# ℹ 27 more rows
# ℹ 2 more variables: Region2 <dbl>, Region6 <dbl>
…
