R for Political Science - 第8回講義資料
…
　第6回の講義で作成したデータ（BuildingData.csv）がプロジェクト・フォルダー内のDataフォルダー内に保存されている場合、以下のように読み込む。読み込んだデータを使うためには作業環境内にオブジェクトとして格納しておく必要があり、今回はmy_df3と名付ける。

Code 22

my_df3 <- read_csv("Data/BuildingData.csv") # 第6回のデータ

データ・フレームの確認

　作業環境に格納されたデータ・フレームを出力する場合はオブジェクト名を入力する。データが画面に収まらない場合は一部の列が省略される場合があり、出力される行数はデフォルト設定では10行である。以下でも最初の10行しか出力されているが、出力画面の1行目の情報（# A tibble: 47 × 5）から全47行のデータであることが分かる。

Code 23

my_df3

# A tibble: 47 × 5
      ID Pref   Finance Over65 Turnout
   <dbl> <chr>    <dbl>  <dbl>   <dbl>
 1     1 北海道   0.462   32.3    58.8
 2     2 青森県   0.358   33.7    52.9
 3     3 岩手県   0.372   33.8    60.4
 4     4 宮城県   0.626   28.4    55.9
 5     5 秋田県   0.322   37.6    58.2
 6     6 山形県   0.379   34.0    64.3
 7     7 福島県   0.545   31.8    58.0
 8     8 茨城県   0.656   30.3    52.5
 9     9 栃木県   0.648   29.6    53.1
10    10 群馬県   0.638   30.9    53.9
# ℹ 37 more rows
…
Code 38

class(my_df3[c(13, 27, 40), ])

[1] "tbl_df"     "tbl"        "data.frame"

列の抽出

　列の抽出も行の抽出方法と同じである。たとえば、my_df3の2列目を抽出したい場合は以下のように入力する。

Code 39

my_df3[, 2] # my_df3[, "Pref"] でもOK

# A tibble: 47 × 1
   Pref  
   <chr> 
 1 北海道
 2 青森県
 3 岩手県
 4 宮城県
 5 秋田県
 6 山形県
 7 福島県
 8 茨城県
 9 栃木県
10 群馬県
# ℹ 37 more rows
…
Code 40

class(my_df3[, 2])

[1] "tbl_df"     "tbl"        "data.frame"

　c()や:演算子を使うことで複数列の抽出も可能であり、抽出後のデータ構造もデータ・フレームである。

Code 41

# my_df3[, c("Pref", "Over65", "Turnout")] でもOK
my_df3[, c(2, 4, 5)]

# A tibble: 47 × 3
   Pref   Over65 Turnout
   <chr>   <dbl>   <dbl>
 1 北海道   32.3    58.8
 2 青森県   33.7    52.9
 3 岩手県   33.8    60.4
 4 宮城県   28.4    55.9
 5 秋田県   37.6    58.2
 6 山形県   34.0    64.3
 7 福島県   31.8    58.0
 8 茨城県   30.3    52.5
 9 栃木県   29.6    53.1
10 群馬県   30.9    53.9
# ℹ 37 more rows
…
