第10回講義資料 – R for Political Science
…
max(MathScore, na.rm = TRUE) - min(MathScore, na.rm = TRUE) # 範囲

[1] 49

　今回は{dplyr}パッケージを用いて変数の記述統計量を計算する方法を紹介する。まず、今回の実習用データを読み込む。第9回に使用したデータと同じデータを使う。

Code 08

library(tidyverse)
df <- read_csv("Data/countries.csv")

df

# A tibble: 186 × 18
   Country  Population   Area    GDP     PPP GDP_per_capita PPP_per_capita    G7
   <chr>         <dbl>  <dbl>  <dbl>   <dbl>          <dbl>          <dbl> <dbl>
 1 Afghani…   38928346 6.53e5 1.91e4  8.27e4           491.          2125.     0
 2 Albania     2877797 2.74e4 1.53e4  3.97e4          5309.         13781.     0
 3 Algeria    43851044 2.38e6 1.70e5  4.97e5          3876.         11324.     0
 4 Andorra       77265 4.7 e2 3.15e3 NA              40821.            NA      0
 5 Angola     32866272 1.25e6 9.46e4  2.19e5          2879.          6649.     0
 6 Antigua…      97929 4.4 e2 1.73e3  2.08e3         17643.         21267.     0
 7 Argenti…   45195774 2.74e6 4.50e5  1.04e6          9949.         22938.     0
 8 Armenia     2963243 2.85e4 1.37e4  3.84e4          4614.         12974.     0
 9 Austral…   25499884 7.68e6 1.39e6  1.28e6         54615.         50001.     0
10 Austria     9006398 8.24e4 4.46e5  5.03e5         49555.         55824.     0
# ℹ 176 more rows
# ℹ 10 more variables: G20 <dbl>, OECD <dbl>, HDI_2018 <dbl>,
#   Polity_Score <dbl>, Polity_Type <chr>, FH_PR <dbl>, FH_CL <dbl>,
#   FH_Total <dbl>, FH_Status <chr>, Continent <chr>
…
　ここでは、dfのPopulationをAreaで割り（=人口密度）、Densityという名の列として追加してみよう。{dplyr}を使わずにこの処理を行う場合、以下のようなコードとなる。

Code 29

df$Density <- df$Population / df$Area

　一方、{dplyr}のmutate()関数を使用する場合、以下のようなコードになる。

Code 30

df |>
  mutate(Density = Population / Area)

# A tibble: 186 × 19
   Country  Population   Area    GDP     PPP GDP_per_capita PPP_per_capita    G7
   <chr>         <dbl>  <dbl>  <dbl>   <dbl>          <dbl>          <dbl> <dbl>
 1 Afghani…   38928346 6.53e5 1.91e4  8.27e4           491.          2125.     0
 2 Albania     2877797 2.74e4 1.53e4  3.97e4          5309.         13781.     0
 3 Algeria    43851044 2.38e6 1.70e5  4.97e5          3876.         11324.     0
 4 Andorra       77265 4.7 e2 3.15e3 NA              40821.            NA      0
 5 Angola     32866272 1.25e6 9.46e4  2.19e5          2879.          6649.     0
 6 Antigua…      97929 4.4 e2 1.73e3  2.08e3         17643.         21267.     0
 7 Argenti…   45195774 2.74e6 4.50e5  1.04e6          9949.         22938.     0
 8 Armenia     2963243 2.85e4 1.37e4  3.84e4          4614.         12974.     0
 9 Austral…   25499884 7.68e6 1.39e6  1.28e6         54615.         50001.     0
10 Austria     9006398 8.24e4 4.46e5  5.03e5         49555.         55824.     0
# ℹ 176 more rows
# ℹ 11 more variables: G20 <dbl>, OECD <dbl>, HDI_2018 <dbl>,
#   Polity_Score <dbl>, Polity_Type <chr>, FH_PR <dbl>, FH_CL <dbl>,
#   FH_Total <dbl>, FH_Status <chr>, Continent <chr>, Density <dbl>

　出力される画面にDensity列が見当たらない。これは新しく追加されたDensity列が最後の列であり、画面に収まらないからである。むろん、Density列は問題なく追加されており、出力画面の下段に省略されている変数名に含まれていることが分かる。

　もし、新しく追加される列の順番を指定したい場合はrelocate() 同様、.after、または.beforeを指定すればよい。以下のコードはDensity列をArea列の後に追加するコードである。

Code 31

df |>
  mutate(Density = Population / Area, 
         .after  = Area)

# A tibble: 186 × 19
   Country             Population    Area Density     GDP     PPP GDP_per_capita
   <chr>                    <dbl>   <dbl>   <dbl>   <dbl>   <dbl>          <dbl>
 1 Afghanistan           38928346  652860   59.6   1.91e4  8.27e4           491.
 2 Albania                2877797   27400  105.    1.53e4  3.97e4          5309.
 3 Algeria               43851044 2381740   18.4   1.70e5  4.97e5          3876.
 4 Andorra                  77265     470  164.    3.15e3 NA              40821.
 5 Angola                32866272 1246700   26.4   9.46e4  2.19e5          2879.
 6 Antigua and Barbuda      97929     440  223.    1.73e3  2.08e3         17643.
 7 Argentina             45195774 2736690   16.5   4.50e5  1.04e6          9949.
 8 Armenia                2963243   28470  104.    1.37e4  3.84e4          4614.
 9 Australia             25499884 7682300    3.32  1.39e6  1.28e6         54615.
10 Austria                9006398   82409  109.    4.46e5  5.03e5         49555.
# ℹ 176 more rows
# ℹ 12 more variables: PPP_per_capita <dbl>, G7 <dbl>, G20 <dbl>, OECD <dbl>,
#   HDI_2018 <dbl>, Polity_Score <dbl>, Polity_Type <chr>, FH_PR <dbl>,
#   FH_CL <dbl>, FH_Total <dbl>, FH_Status <chr>, Continent <chr>
…
arrange()使用

　以上の計算仮定の内、1と2は一つのmutate()関数内にまとめることができる。したがって、データ |> mutate() |> select() |> arrange()の順番でコードを書く必要がある。

Code 32

df |> 
  mutate(Total_Pop = sum(Population),              # 手順1
         Share_Pop = Population / Total_Pop * 100, # 手順2
         .after    = Population) |>                # 手順2
  select(Country:Share_Pop, -Total_Pop) |>         # 手順3
  arrange(desc(Share_Pop))                         # 手順4

# A tibble: 186 × 3
   Country       Population Share_Pop
   <chr>              <dbl>     <dbl>
 1 China         1447470092     18.6 
 2 India         1380004385     17.8 
 3 United States  334308644      4.31
 4 Indonesia      273523615      3.52
 5 Pakistan       220892340      2.85
 6 Brazil         212559417      2.74
 7 Nigeria        206139589      2.66
 8 Bangladesh     164689383      2.12
 9 Russia         145934462      1.88
10 Mexico         128932753      1.66
# ℹ 176 more rows
…
Code 35

if_else(条件式, TRUEの場合の戻り値, FALSEの場合の戻り値)

　たとえば、dfのOECDが1なら"OECD加盟国"、それ以外なら"OECD非加盟国"に変換し、OECD_Jという列として追加する場合、以下のコードになる。リコーディングの場合、既存の変数を上書きするより、新しい列として追加することを推奨する。

Code 36

df <- df |>
  mutate(OECD_J = if_else(OECD == 1, "OECD加盟国", "OECD非加盟国"))

df

# A tibble: 186 × 19
   Country  Population   Area    GDP     PPP GDP_per_capita PPP_per_capita    G7
   <chr>         <dbl>  <dbl>  <dbl>   <dbl>          <dbl>          <dbl> <dbl>
 1 Afghani…   38928346 6.53e5 1.91e4  8.27e4           491.          2125.     0
 2 Albania     2877797 2.74e4 1.53e4  3.97e4          5309.         13781.     0
 3 Algeria    43851044 2.38e6 1.70e5  4.97e5          3876.         11324.     0
 4 Andorra       77265 4.7 e2 3.15e3 NA              40821.            NA      0
 5 Angola     32866272 1.25e6 9.46e4  2.19e5          2879.          6649.     0
 6 Antigua…      97929 4.4 e2 1.73e3  2.08e3         17643.         21267.     0
 7 Argenti…   45195774 2.74e6 4.50e5  1.04e6          9949.         22938.     0
 8 Armenia     2963243 2.85e4 1.37e4  3.84e4          4614.         12974.     0
 9 Austral…   25499884 7.68e6 1.39e6  1.28e6         54615.         50001.     0
10 Austria     9006398 8.24e4 4.46e5  5.03e5         49555.         55824.     0
# ℹ 176 more rows
# ℹ 11 more variables: G20 <dbl>, OECD <dbl>, HDI_2018 <dbl>,
#   Polity_Score <dbl>, Polity_Type <chr>, FH_PR <dbl>, FH_CL <dbl>,
#   FH_Total <dbl>, FH_Status <chr>, Continent <chr>, OECD_J <chr>
…
