R for Political Science - 第9回講義資料
…
　まずは本講義に使用するデータを読み込んでみよう。サポートページからcountries.csvをダウンロードし、プロジェクト・フォルダーにアップロードする。宋はプロジェクト・フォルダー内にDataという名のフォルダーを作成し、そこにデータをアップロードした。

Code 03

library(tidyverse) # {tidyverse}の読み込み
# Dataフォルダー内のcountries.csvを読み込み、dfという名のオブジェクトとして作業環境に格納
df <- read_csv("Data/countries.csv")

　読み込んだデータを出力してみよう。

Code 04

df

# A tibble: 186 × 18
   Country       Popul…¹   Area    GDP     PPP GDP_p…² PPP_p…³    G7   G20  OECD
   <chr>           <dbl>  <dbl>  <dbl>   <dbl>   <dbl>   <dbl> <dbl> <dbl> <dbl>
 1 Afghanistan    3.89e7 6.53e5 1.91e4  8.27e4    491.   2125.     0     0     0
 2 Albania        2.88e6 2.74e4 1.53e4  3.97e4   5309.  13781.     0     0     0
 3 Algeria        4.39e7 2.38e6 1.70e5  4.97e5   3876.  11324.     0     0     0
 4 Andorra        7.73e4 4.7 e2 3.15e3 NA       40821.     NA      0     0     0
 5 Angola         3.29e7 1.25e6 9.46e4  2.19e5   2879.   6649.     0     0     0
 6 Antigua and …  9.79e4 4.4 e2 1.73e3  2.08e3  17643.  21267.     0     0     0
 7 Argentina      4.52e7 2.74e6 4.50e5  1.04e6   9949.  22938.     0     1     0
 8 Armenia        2.96e6 2.85e4 1.37e4  3.84e4   4614.  12974.     0     0     0
 9 Australia      2.55e7 7.68e6 1.39e6  1.28e6  54615.  50001.     0     1     1
10 Austria        9.01e6 8.24e4 4.46e5  5.03e5  49555.  55824.     0     0     1
# … with 176 more rows, 8 more variables: HDI_2018 <dbl>, Polity_Score <dbl>,
#   Polity_Type <chr>, FH_PR <dbl>, FH_CL <dbl>, FH_Total <dbl>,
#   FH_Status <chr>, Continent <chr>, and abbreviated variable names
#   ¹​Population, ²​GDP_per_capita, ³​PPP_per_capita
…
select()関数は{dplyr}だけでなく、{MASS}からも提供されるが、別の関数である。

{MASS}もデータ分析において頻繁に使われるパッケージであるため、select()だけだと、どのパッケージのselect()か分からなくなる場合がある。

エラーが生じる場合は、dplyr::select()など、パッケージ名を指定すること

　それではいくつかの例を紹介しよう。まずはdfからCountry、Population、HDI_2018列を抽出してみよう。

Code 08

df %>%                                  # dfから
  select(Country, Population, HDI_2018) # Country, Population, HDI_2018のみ抽出する

# A tibble: 186 × 3
   Country             Population HDI_2018
   <chr>                    <dbl>    <dbl>
 1 Afghanistan           38928346    0.496
 2 Albania                2877797    0.791
 3 Algeria               43851044    0.759
 4 Andorra                  77265    0.857
 5 Angola                32866272    0.574
 6 Antigua and Barbuda      97929    0.776
 7 Argentina             45195774    0.83 
 8 Armenia                2963243    0.76 
 9 Australia             25499884    0.938
10 Austria                9006398    0.914
# … with 176 more rows

　この操作を第8回で紹介した方法で行う場合、以下のようなコードとなる。どちらの方が可読性が良いかは一目瞭然だろう。

既存の書き方

Code 09-a

df[, c("Country", "Population", "HDI_2018")]

# A tibble: 186 × 3
   Country             Population HDI_2018
   <chr>                    <dbl>    <dbl>
 1 Afghanistan           38928346    0.496
 2 Albania                2877797    0.791
 3 Algeria               43851044    0.759
 4 Andorra                  77265    0.857
 5 Angola                32866272    0.574
 6 Antigua and Barbuda      97929    0.776
 7 Argentina             45195774    0.83 
 8 Armenia                2963243    0.76 
 9 Australia             25499884    0.938
10 Austria                9006398    0.914
# … with 176 more rows

Tidyverseな書き方

Code 09-b

df %>%
  select(Country, Population, HDI_2018)

# A tibble: 186 × 3
   Country             Population HDI_2018
   <chr>                    <dbl>    <dbl>
 1 Afghanistan           38928346    0.496
 2 Albania                2877797    0.791
 3 Algeria               43851044    0.759
 4 Andorra                  77265    0.857
 5 Angola                32866272    0.574
 6 Antigua and Barbuda      97929    0.776
 7 Argentina             45195774    0.83 
 8 Armenia                2963243    0.76 
 9 Australia             25499884    0.938
10 Austria                9006398    0.914
# … with 176 more rows
…
　ls()で現在の作業環境内のオブジェクトの一覧を出力するとdf2がある。

Code 11

ls()

[1] "df"  "df2" "X"  

　df2を出力してみるとdfから3つの列のみ抽出されたものがdf2という新しい名のオブジェクトとして格納されていることが分かる。

Code 12

df2

# A tibble: 186 × 3
   Country             Population HDI_2018
   <chr>                    <dbl>    <dbl>
 1 Afghanistan           38928346    0.496
 2 Albania                2877797    0.791
 3 Algeria               43851044    0.759
 4 Andorra                  77265    0.857
 5 Angola                32866272    0.574
 6 Antigua and Barbuda      97929    0.776
 7 Argentina             45195774    0.83 
 8 Armenia                2963243    0.76 
 9 Australia             25499884    0.938
10 Austria                9006398    0.914
# … with 176 more rows

課題では格納が必要な場合もある

課題の問題には「出力せよ」だけでなく、「格納した上で出力せよ」といった形式もある。加工したデータを引き続き使うためには格納が必須であるため、問題文を注意深く読むこと。

　select()関数のもう一つの特徴は、変数名の変更と抽出を同時に行えることだ。抽出する際、新しい変数名 = 既存の変数名と記入すれば、抽出と同時に変数名も変更できる。たとえば、dfからCountry、Population、HDI_2018を抽出し、HDI_2018の変数名をHDIに変更したい場合は以下のように書く。

Code 13

df %>%
  select(Country, Population, HDI = HDI_2018)

# A tibble: 186 × 3
   Country             Population   HDI
   <chr>                    <dbl> <dbl>
 1 Afghanistan           38928346 0.496
 2 Albania                2877797 0.791
 3 Algeria               43851044 0.759
 4 Andorra                  77265 0.857
 5 Angola                32866272 0.574
 6 Antigua and Barbuda      97929 0.776
 7 Argentina             45195774 0.83 
 8 Armenia                2963243 0.76 
 9 Australia             25499884 0.938
10 Austria                9006398 0.914
# … with 176 more rows

　抽出は行わず、変数名のみを変更したい場合はrename()関数を使用する。使い方はselect()関数と同じである。たとえば、dfのPopulationをJinkoに、AreaをMensekiに変更し、18列は温存する場合は以下のように書く。

Code 14

df %>%
  rename(Jinko = Population, Menseki = Area)

# A tibble: 186 × 18
   Country        Jinko Menseki    GDP     PPP GDP_p…¹ PPP_p…²    G7   G20  OECD
   <chr>          <dbl>   <dbl>  <dbl>   <dbl>   <dbl>   <dbl> <dbl> <dbl> <dbl>
 1 Afghanistan   3.89e7  652860 1.91e4  8.27e4    491.   2125.     0     0     0
 2 Albania       2.88e6   27400 1.53e4  3.97e4   5309.  13781.     0     0     0
 3 Algeria       4.39e7 2381740 1.70e5  4.97e5   3876.  11324.     0     0     0
 4 Andorra       7.73e4     470 3.15e3 NA       40821.     NA      0     0     0
 5 Angola        3.29e7 1246700 9.46e4  2.19e5   2879.   6649.     0     0     0
 6 Antigua and … 9.79e4     440 1.73e3  2.08e3  17643.  21267.     0     0     0
 7 Argentina     4.52e7 2736690 4.50e5  1.04e6   9949.  22938.     0     1     0
 8 Armenia       2.96e6   28470 1.37e4  3.84e4   4614.  12974.     0     0     0
 9 Australia     2.55e7 7682300 1.39e6  1.28e6  54615.  50001.     0     1     1
10 Austria       9.01e6   82409 4.46e5  5.03e5  49555.  55824.     0     0     1
# … with 176 more rows, 8 more variables: HDI_2018 <dbl>, Polity_Score <dbl>,
#   Polity_Type <chr>, FH_PR <dbl>, FH_CL <dbl>, FH_Total <dbl>,
#   FH_Status <chr>, Continent <chr>, and abbreviated variable names
#   ¹​GDP_per_capita, ²​PPP_per_capita

　18の変数の中から17個を抽出したい場合はselect()内に17つの変数名を入れれば良いが、これは非効率的である。select()関数は変数名の前に! (推奨)、または-を付けることで、特定の列を除外することができる。また、2つ以上の変数を除外する場合、変数名をc()や、後述する:でまとめることもできる。。

　たとえば、dfからPopulationとArea、GDP、PPP列を除外するコードは以下の通りである。

Code 15

df %>%
  select(!c(Population, Area, GDP, PPP))

# A tibble: 186 × 14
   Country GDP_p…¹ PPP_p…²    G7   G20  OECD HDI_2…³ Polit…⁴ Polit…⁵ FH_PR FH_CL
   <chr>     <dbl>   <dbl> <dbl> <dbl> <dbl>   <dbl>   <dbl> <chr>   <dbl> <dbl>
 1 Afghan…    491.   2125.     0     0     0   0.496      -1 Closed…    13    14
 2 Albania   5309.  13781.     0     0     0   0.791       9 Democr…    27    40
 3 Algeria   3876.  11324.     0     0     0   0.759       2 Open A…    10    24
 4 Andorra  40821.     NA      0     0     0   0.857      NA <NA>       39    55
 5 Angola    2879.   6649.     0     0     0   0.574      -2 Closed…    11    21
 6 Antigu…  17643.  21267.     0     0     0   0.776      NA <NA>       33    52
 7 Argent…   9949.  22938.     0     1     0   0.83        9 Democr…    35    50
 8 Armenia   4614.  12974.     0     0     0   0.76        7 Democr…    21    32
 9 Austra…  54615.  50001.     0     1     1   0.938      10 Full D…    40    57
10 Austria  49555.  55824.     0     0     1   0.914      10 Full D…    37    56
# … with 176 more rows, 3 more variables: FH_Total <dbl>, FH_Status <chr>,
#   Continent <chr>, and abbreviated variable names ¹​GDP_per_capita,
#   ²​PPP_per_capita, ³​HDI_2018, ⁴​Polity_Score, ⁵​Polity_Type

　以上の例だと、PopulationからPPPは連続して位置する変数であるが、{dplyr}では:演算子を使うと、XXからYYまでといった選択ができる。たとえば、「PopulationからPPPまで」は「Population:PPP」と表記する。つまり、上記のコードは以下のように書くこともできる。

Code 16

df %>%
  select(!c(Population:PPP))

# A tibble: 186 × 14
   Country GDP_p…¹ PPP_p…²    G7   G20  OECD HDI_2…³ Polit…⁴ Polit…⁵ FH_PR FH_CL
   <chr>     <dbl>   <dbl> <dbl> <dbl> <dbl>   <dbl>   <dbl> <chr>   <dbl> <dbl>
 1 Afghan…    491.   2125.     0     0     0   0.496      -1 Closed…    13    14
 2 Albania   5309.  13781.     0     0     0   0.791       9 Democr…    27    40
 3 Algeria   3876.  11324.     0     0     0   0.759       2 Open A…    10    24
 4 Andorra  40821.     NA      0     0     0   0.857      NA <NA>       39    55
 5 Angola    2879.   6649.     0     0     0   0.574      -2 Closed…    11    21
 6 Antigu…  17643.  21267.     0     0     0   0.776      NA <NA>       33    52
 7 Argent…   9949.  22938.     0     1     0   0.83        9 Democr…    35    50
 8 Armenia   4614.  12974.     0     0     0   0.76        7 Democr…    21    32
 9 Austra…  54615.  50001.     0     1     1   0.938      10 Full D…    40    57
10 Austria  49555.  55824.     0     0     1   0.914      10 Full D…    37    56
# … with 176 more rows, 3 more variables: FH_Total <dbl>, FH_Status <chr>,
#   Continent <chr>, and abbreviated variable names ¹​GDP_per_capita,
#   ²​PPP_per_capita, ³​HDI_2018, ⁴​Polity_Score, ⁵​Polity_Type

　むろん、:は否定演算子じゃなくても使える。dfのCountry〜PPP, HDI_2018列を抽出するコードは以下の通りである。

Code 17

df %>%
  select(Country:PPP, HDI_2018)

# A tibble: 186 × 6
   Country             Population    Area      GDP      PPP HDI_2018
   <chr>                    <dbl>   <dbl>    <dbl>    <dbl>    <dbl>
 1 Afghanistan           38928346  652860   19101.   82737.    0.496
 2 Albania                2877797   27400   15278.   39658.    0.791
 3 Algeria               43851044 2381740  169988.  496572.    0.759
 4 Andorra                  77265     470    3154.      NA     0.857
 5 Angola                32866272 1246700   94635.  218533.    0.574
 6 Antigua and Barbuda      97929     440    1728.    2083.    0.776
 7 Argentina             45195774 2736690  449663. 1036721.    0.83 
 8 Armenia                2963243   28470   13673.   38446.    0.76 
 9 Australia             25499884 7682300 1392681. 1275027.    0.938
10 Austria                9006398   82409  446315.  502771.    0.914
# … with 176 more rows

　以下では変数を選択するより洗練された方法について解説する。変数名が特定の文字列で始まる列を選択する関数としてstarts_with()がある。たとえば、dfからCountry, "FH"で始まる列を抽出する場合は以下のように書く。

Code 18

df %>%
  select(Country, starts_with("FH"))

# A tibble: 186 × 5
   Country             FH_PR FH_CL FH_Total FH_Status
   <chr>               <dbl> <dbl>    <dbl> <chr>    
 1 Afghanistan            13    14       27 NF       
 2 Albania                27    40       67 PF       
 3 Algeria                10    24       34 NF       
 4 Andorra                39    55       94 F        
 5 Angola                 11    21       32 NF       
 6 Antigua and Barbuda    33    52       85 F        
 7 Argentina              35    50       85 F        
 8 Armenia                21    32       53 PF       
 9 Australia              40    57       97 F        
10 Austria                37    56       93 F        
# … with 176 more rows

　starts_with()の前に!を付けると該当する列が除外される。たとえば、"GDP"と"PPP"で始まる列を除外する場合はstarts_with()内にcharacter型ベクトルを入れる。

Code 19

df %>%
  select(!starts_with(c("GDP", "PPP")))

# A tibble: 186 × 14
   Country  Popul…¹   Area    G7   G20  OECD HDI_2…² Polit…³ Polit…⁴ FH_PR FH_CL
   <chr>      <dbl>  <dbl> <dbl> <dbl> <dbl>   <dbl>   <dbl> <chr>   <dbl> <dbl>
 1 Afghani…  3.89e7 6.53e5     0     0     0   0.496      -1 Closed…    13    14
 2 Albania   2.88e6 2.74e4     0     0     0   0.791       9 Democr…    27    40
 3 Algeria   4.39e7 2.38e6     0     0     0   0.759       2 Open A…    10    24
 4 Andorra   7.73e4 4.7 e2     0     0     0   0.857      NA <NA>       39    55
 5 Angola    3.29e7 1.25e6     0     0     0   0.574      -2 Closed…    11    21
 6 Antigua…  9.79e4 4.4 e2     0     0     0   0.776      NA <NA>       33    52
 7 Argenti…  4.52e7 2.74e6     0     1     0   0.83        9 Democr…    35    50
 8 Armenia   2.96e6 2.85e4     0     0     0   0.76        7 Democr…    21    32
 9 Austral…  2.55e7 7.68e6     0     1     1   0.938      10 Full D…    40    57
10 Austria   9.01e6 8.24e4     0     0     1   0.914      10 Full D…    37    56
# … with 176 more rows, 3 more variables: FH_Total <dbl>, FH_Status <chr>,
#   Continent <chr>, and abbreviated variable names ¹​Population, ²​HDI_2018,
#   ³​Polity_Score, ⁴​Polity_Type

　starts_with()に似たような機能をする関数として特定の文字列で終わる列を選択するends_with()と特定の文字列を含む列を選択するcontains()がある。これらの使い方はstarts_with()と同じだ。

　続いて、列の順番を変更する方法を紹介する。実はselect()関数は書かれた順番で列を抽出する。たとえば、G7からOECD列をCountryとPopulationの間へ移動する場合は以下のように書く。

Code 20

df %>%
  select(Country, G7:OECD,
         Population:PPP_per_capita, HDI_2018:Continent)

# A tibble: 186 × 18
   Country          G7   G20  OECD Popul…¹   Area    GDP     PPP GDP_p…² PPP_p…³
   <chr>         <dbl> <dbl> <dbl>   <dbl>  <dbl>  <dbl>   <dbl>   <dbl>   <dbl>
 1 Afghanistan       0     0     0  3.89e7 6.53e5 1.91e4  8.27e4    491.   2125.
 2 Albania           0     0     0  2.88e6 2.74e4 1.53e4  3.97e4   5309.  13781.
 3 Algeria           0     0     0  4.39e7 2.38e6 1.70e5  4.97e5   3876.  11324.
 4 Andorra           0     0     0  7.73e4 4.7 e2 3.15e3 NA       40821.     NA 
 5 Angola            0     0     0  3.29e7 1.25e6 9.46e4  2.19e5   2879.   6649.
 6 Antigua and …     0     0     0  9.79e4 4.4 e2 1.73e3  2.08e3  17643.  21267.
 7 Argentina         0     1     0  4.52e7 2.74e6 4.50e5  1.04e6   9949.  22938.
 8 Armenia           0     0     0  2.96e6 2.85e4 1.37e4  3.84e4   4614.  12974.
 9 Australia         0     1     1  2.55e7 7.68e6 1.39e6  1.28e6  54615.  50001.
10 Austria           0     0     1  9.01e6 8.24e4 4.46e5  5.03e5  49555.  55824.
# … with 176 more rows, 8 more variables: HDI_2018 <dbl>, Polity_Score <dbl>,
#   Polity_Type <chr>, FH_PR <dbl>, FH_CL <dbl>, FH_Total <dbl>,
#   FH_Status <chr>, Continent <chr>, and abbreviated variable names
#   ¹​Population, ²​GDP_per_capita, ³​PPP_per_capita
…
# 特定の変数の後ろへ移動
データ %>%
  relocate(移動したい変数名, .after = 変更先)
# 特定の変数の前へ移動
データ %>%
  relocate(移動したい変数名, .before = 変更先)

　たとえば、G7からOECD列をCountryの後ろへ移動させる場合は以下のように書く。

Code 22

df %>%
  relocate(G7:OECD, .after = Country) # .before = PopulationもOK

# A tibble: 186 × 18
   Country          G7   G20  OECD Popul…¹   Area    GDP     PPP GDP_p…² PPP_p…³
   <chr>         <dbl> <dbl> <dbl>   <dbl>  <dbl>  <dbl>   <dbl>   <dbl>   <dbl>
 1 Afghanistan       0     0     0  3.89e7 6.53e5 1.91e4  8.27e4    491.   2125.
 2 Albania           0     0     0  2.88e6 2.74e4 1.53e4  3.97e4   5309.  13781.
 3 Algeria           0     0     0  4.39e7 2.38e6 1.70e5  4.97e5   3876.  11324.
 4 Andorra           0     0     0  7.73e4 4.7 e2 3.15e3 NA       40821.     NA 
 5 Angola            0     0     0  3.29e7 1.25e6 9.46e4  2.19e5   2879.   6649.
 6 Antigua and …     0     0     0  9.79e4 4.4 e2 1.73e3  2.08e3  17643.  21267.
 7 Argentina         0     1     0  4.52e7 2.74e6 4.50e5  1.04e6   9949.  22938.
 8 Armenia           0     0     0  2.96e6 2.85e4 1.37e4  3.84e4   4614.  12974.
 9 Australia         0     1     1  2.55e7 7.68e6 1.39e6  1.28e6  54615.  50001.
10 Austria           0     0     1  9.01e6 8.24e4 4.46e5  5.03e5  49555.  55824.
# … with 176 more rows, 8 more variables: HDI_2018 <dbl>, Polity_Score <dbl>,
#   Polity_Type <chr>, FH_PR <dbl>, FH_CL <dbl>, FH_Total <dbl>,
#   FH_Status <chr>, Continent <chr>, and abbreviated variable names
#   ¹​Population, ²​GDP_per_capita, ³​PPP_per_capita
…
　二つの条件式を&で繋いだことに注意されたい。filter()関数で複数の条件式を使う場合は,、&、|のいずれかを使うが、,と&は同じ（=AND演算子）である。混乱を避けるために&の使用を推奨するが、,を使っても良い。

　もう一つの演算子はOR演算子（|）である。これは2つ以上の条件のうち、一つ以上の条件を満たす行を抽出することを意味する。たとえば、dfからContinentが"Asia"（条件1）か"Oceania"（条件2）の行を抽出し、CountryとHDI_2018、Continent列を抽出する場合、以下のように書く。

Code 26

df %>%
  filter(Continent == "Asia" | Continent == "Oceania") %>%
  select(Country, HDI_2018, Continent)

# A tibble: 46 × 3
   Country     HDI_2018 Continent
   <chr>          <dbl> <chr>    
 1 Afghanistan    0.496 Asia     
 2 Australia      0.938 Oceania  
 3 Bahrain        0.838 Asia     
 4 Bangladesh     0.614 Asia     
 5 Bhutan         0.617 Asia     
 6 Brunei         0.845 Asia     
 7 Burma          0.584 Asia     
 8 Cambodia       0.581 Asia     
 9 China          0.758 Asia     
10 Fiji           0.724 Oceania  
# … with 36 more rows
…
　しかし、我々が本当にやりたいことはPPPが欠損している行のみ抽出するのではなく、 PPPが欠損している行を除外することだ。ここでも否定を意味する!が使える。

Code 32

df %>%
  filter(!is.na(PPP)) %>%
  select(Country:PPP)

# A tibble: 178 × 5
   Country             Population    Area      GDP      PPP
   <chr>                    <dbl>   <dbl>    <dbl>    <dbl>
 1 Afghanistan           38928346  652860   19101.   82737.
 2 Albania                2877797   27400   15278.   39658.
 3 Algeria               43851044 2381740  169988.  496572.
 4 Angola                32866272 1246700   94635.  218533.
 5 Antigua and Barbuda      97929     440    1728.    2083.
 6 Argentina             45195774 2736690  449663. 1036721.
 7 Armenia                2963243   28470   13673.   38446.
 8 Australia             25499884 7682300 1392681. 1275027.
 9 Austria                9006398   82409  446315.  502771.
10 Azerbaijan            10139177   82658   48048.  144556.
# … with 168 more rows

　このようにPPPが欠損していない行だけが抽出された。また、より簡単な方法としてdrop_na()関数を使うこともできる。これは()内で指定した変数が欠損している行をすべて除外する関数であり、複数の変数を同時に指定できるので便利である。たとえば、dfからPPPとPolity_Scoreが欠損していない行だけを抽出し、CountryからPPP、そしてPolity_Score列を残してみよう。

Code 33

df %>%
  drop_na(PPP, Polity_Score) %>%
  select(Country:PPP, Polity_Score)

# A tibble: 155 × 6
   Country     Population    Area      GDP      PPP Polity_Score
   <chr>            <dbl>   <dbl>    <dbl>    <dbl>        <dbl>
 1 Afghanistan   38928346  652860   19101.   82737.           -1
 2 Albania        2877797   27400   15278.   39658.            9
 3 Algeria       43851044 2381740  169988.  496572.            2
 4 Angola        32866272 1246700   94635.  218533.           -2
 5 Argentina     45195774 2736690  449663. 1036721.            9
 6 Armenia        2963243   28470   13673.   38446.            7
 7 Australia     25499884 7682300 1392681. 1275027.           10
 8 Austria        9006398   82409  446315.  502771.           10
 9 Azerbaijan    10139177   82658   48048.  144556.           -7
10 Bahrain        1701575     760   38574.   74230.          -10
# … with 145 more rows

行のソート

　最後に行のソート（並び替え）について解説する。行のソートにはarrange()関数を使用する。第一引数はデータフレームのオブジェクトであり、第二引数以降は並び替えの基準となる変数名である。ソートは基本的には昇順、つまり値が小さい行が上に表示される。

　たとえば、dfからContinentの値が"Africa"の行のみを抽出し、Polity_Scoreが小さい国5を上位にする。そして、CountryとPPP_per_capita、Polity_Score列のみ残すコードは以下の通りである。

Code 34

df %>%
  filter(Continent == "Africa") %>%
  arrange(Polity_Score) %>%
  select(Country, PPP_per_capita, Polity_Score)

# A tibble: 54 × 3
   Country             PPP_per_capita Polity_Score
   <chr>                        <dbl>        <dbl>
 1 Eswatini                     8634.           -9
 2 Eritrea                      1860.           -7
 3 Equatorial Guinea           19458.           -6
 4 Cameroon                     3506.           -4
 5 Congo (Brazzaville)          3191.           -4
 6 Egypt                       11198.           -4
 7 Morocco                      7554.           -4
 8 Sudan                        4063.           -4
 9 Comoros                      3007.           -3
10 Congo (Kinshasa)             1043.           -3
# … with 44 more rows
…
