第11回講義資料 – R for Political Science
…
　我々がやりたい作業は2022/06/09列から2022/06/13列までの5列を1つの列としてまとめることである。まとめる列はcols引数で指定する。そして、これまで変数名だったもの（たとえば、2022/06/11など）が入る新しい列名と、値が入る新しい列名を、それぞれnames_toとvalues_toで指定する。ここでは時点はDate、新規感染者数はNew_Casesという列として格納するとしよう。注意すべき点としては、これらの新しい変数名は"で囲むことである。

　ただし、colsの場合、"で囲んでも、囲まなくても良い。ただし、列名に記号が入っていたり、数字で始まる列名は"で囲む必要がある。また、colsでは隣接した列を選択する:やstarts_with()なども使用可能である。

Code 19

COVID_Long <- COVID_df |> 
  # cols = starts_with("2022") でも良い
  pivot_longer(cols      = "2022/06/09":"2022/06/13",
               names_to  = "Date",
               values_to = "New_Cases")
COVID_Long

# A tibble: 25 × 4
   Country Population Date       New_Cases
   <chr>        <dbl> <chr>          <dbl>
 1 China   1447470092 2022/06/09       819
 2 China   1447470092 2022/06/10       848
 3 China   1447470092 2022/06/11      1114
 4 China   1447470092 2022/06/12       990
 5 China   1447470092 2022/06/13       957
 6 Japan    126476461 2022/06/09     16788
 7 Japan    126476461 2022/06/10     15584
 8 Japan    126476461 2022/06/11     15338
 9 Japan    126476461 2022/06/12     13381
10 Japan    126476461 2022/06/13      7942
# ℹ 15 more rows
…
データ |>
  separate(col  = "分割する列名",
           into = c("分割後の列名1", "分割後の列名2", ...),
           sep  = "分割する基準")

　"2022/10/08"の場合、"/"で分ければ、"2022"、"10"、"08"に分割されるだろう。これあらをそれぞれ、Year、Month、Dayといった3つの列に分割してみよう。

Code 22

COVID_Long |>
  separate(col  = "Date",
           into = c("Year", "Month", "Day"),
           sep  = "/")

# A tibble: 25 × 6
   Country Population Year  Month Day   New_Cases
   <chr>        <dbl> <chr> <chr> <chr>     <dbl>
 1 China   1447470092 2022  06    09          819
 2 China   1447470092 2022  06    10          848
 3 China   1447470092 2022  06    11         1114
 4 China   1447470092 2022  06    12          990
 5 China   1447470092 2022  06    13          957
 6 Japan    126476461 2022  06    09        16788
 7 Japan    126476461 2022  06    10        15584
 8 Japan    126476461 2022  06    11        15338
 9 Japan    126476461 2022  06    12        13381
10 Japan    126476461 2022  06    13         7942
# ℹ 15 more rows
…
