R for Political Science - マクロ政治データ分析実習
…
時間に余裕があれば、スライド内のコードも書いておきましょう。

\(t\)検定: 平均値の差の検定

データの読み込み

library(tidyverse)
# 作業フォルダーの下のDataフォルダー内になるGacha2.csvを読み込み、gacha_dfという名で格納
# 今回のデータは先週と同じであるが、result変数のダミー化済み
gacha_df <- read_csv("Data/Gacha2.csv")

gacha_df # gacha_dfの出力

# A tibble: 4,772 × 8
   player trial stone_type result result_N result_R result_SR result_SSR
    <dbl> <dbl> <chr>      <chr>     <dbl>    <dbl>     <dbl>      <dbl>
 1      1     1 Paid       R             0        1         0          0
 2      1     2 Paid       R             0        1         0          0
 3      1     3 Paid       SR            0        0         1          0
 4      1     4 Free       R             0        1         0          0
 5      1     5 Paid       N             1        0         0          0
 6      1     6 Free       N             1        0         0          0
 7      1     7 Free       SSR           0        0         0          1
 8      1     8 Free       N             1        0         0          0
 9      1     9 Free       N             1        0         0          0
10      1    10 Free       N             1        0         0          0
# ℹ 4,762 more rows
…
相関分析: 連続変数間の関係

問題設定

　政治家・政党にとって「投票率の高い地域」は「票になる地域」であるため、補助金などで優遇されているかも知れない。一方、投票率の低い地域は票にならないため、政治家・政党にとって、関心が払われていない可能性もある。これは本当だろうか。仮説検定の際、\(\alpha = 0.05\)を用いる。

2つの連続変数間の関係: 「投票率」と「補助金額」

subsidy_df <- read_csv("Data/Subsidy.csv")

subsidy_df

# A tibble: 47 × 4
      ID Pref   Turnout Subsidy
   <dbl> <chr>    <dbl>   <dbl>
 1     1 北海道    60.3   134. 
 2     2 青森県    54.2   193. 
 3     3 岩手県    59.1   265. 
 4     4 宮城県    52.8    98.2
 5     5 秋田県    60.6   219. 
 6     6 山形県    64.1   187. 
 7     7 福島県    56.7   166. 
 8     8 茨城県    51.5    76.3
 9     9 栃木県    51.7    72.8
10    10 群馬県    52.0    76.6
# ℹ 37 more rows
…
\(\chi^2\)検定: 独立性の検定

問題設定

　ミートソース、ナポリタン、ペペロンチーノ、カルボナーラ、…。みんなが大好きなパスタだが、性別によって好きなパスタは異なるだろうか。これが分かれば気になる彼（彼女）とのデートに参考にしたい。あるいは、性別よりも年齢によって好きなパスタが異なるかも知れない。実際はどうだろう。仮説検定の際、 \(\alpha = 0.05\) を用いる。

2つのカテゴリー変数間の関係: 「性別」と「好きなパスタ」/「40歳以上か否か」と「好きなパスタ」

pasta_df <- read_csv("Data/Pasta.csv")

pasta_df

# A tibble: 1,135 × 4
      ID Female Over40 Pasta      
   <dbl>  <dbl>  <dbl> <chr>      
 1     1      0      0 Naporitan  
 2     2      1      0 Naporitan  
 3     3      0      0 Naporitan  
 4     4      0      0 Carbonara  
 5     5      0      0 Naporitan  
 6     6      0      1 MeatSauce  
 7     7      0      1 Peperoncino
 8     8      0      1 MeatSauce  
 9     9      1      0 Carbonara  
10    10      0      0 Carbonara  
# ℹ 1,125 more rows
…
