R for Political Science - マクロ政治データ分析実習
…
「うちのクラスの数学成績は82点、45点、69点、94点、…、63点です！」は長い

「うちのクラスの数学成績は平均して75点で、標準偏差は8点です。」

実習の準備

パッケージとデータの読み込み（データはLMSから入手可能）

library(tidyverse) # {tidyverse}パッケージを読み込む
df <- read_csv("Data/descstat_data.csv")　# Dataフォルダー内のdescstat_dataを読み込み、dfと名付ける

print(df) # dfの最初の10行を確認

# A tibble: 3,000 × 272
   USER_ID    Q1    Q2    Q3    Q4  Q5_1  Q5_2  Q5_3  Q5_4  Q5_5  Q5_6  Q5_7
     <dbl> <dbl> <dbl> <dbl> <dbl> <dbl> <dbl> <dbl> <dbl> <dbl> <dbl> <dbl>
 1       1     3     3     1     1    80    80    70    50    40    20    50
 2       2     2     2     2     8     0    25    30    30    60    30    10
 3       3     3     1     1     8    80    10     0     0     0     0    75
 4       4     3     3     1     1   100    50     0     0    50     0   100
 5       5     3     3     2     3    70    40    40    50    30    20    70
 6       6     3     1     1     1   100     0     0     0     0     0   100
 7       7     3     3     1     6   100    10    20    10    10    10    50
 8       8     3     1     1     6    80     0    60    55     0     0    90
 9       9     3     1     1     1   100    50   100    75    50    25   100
10      10     3     3     1     8    25    25    25    25    55    50    50
# … with 2,990 more rows, and 260 more variables: Q5_8 <dbl>, Q5_9 <dbl>,
#   Q5_10 <dbl>, Q5_11 <dbl>, Q5_12 <dbl>, Q6_1 <dbl>, Q6_2 <dbl>, Q6_3 <dbl>,
#   Q6_4 <dbl>, Q6_5 <dbl>, Q7 <dbl>, Q8 <dbl>, Q9 <dbl>, Q10_1 <dbl>,
#   Q10_2 <dbl>, Q10_3 <dbl>, Q10_4 <dbl>, Q10_5 <dbl>, Q10_6 <dbl>,
#   Q10_7 <dbl>, Q10_8 <dbl>, Q11 <dbl>, Q12 <dbl>, Q12S1 <dbl>, Q13 <dbl>,
#   Q13S1 <dbl>, Q13S2 <dbl>, Q14 <dbl>, Q14S1 <dbl>, Q15 <dbl>, Q15S1 <dbl>,
#   Q15S2 <dbl>, Q16 <dbl>, Q16S1 <dbl>, Q16S2 <dbl>, Q17_1 <dbl>, …
…
df2 <- df %>%
  select(ID           = USER_ID, # 回答者ID
         Gender       = sex,     # 性別
         Age          = age,     # 年齢
         Education    = Q61,     # 最終学歴
         Voted        = Q15,     # 投票参加 (2016参院選)
         VotedParty   = Q15S2,   # 投票先 (2016参院選)
         T_Jimin      = Q5_7,    # 自民に対する感情温度
         T_Minshin    = Q5_11)   # 民進に対する感情温度

df2 # print(df2)もOK

# A tibble: 3,000 × 8
      ID Gender   Age Education Voted VotedParty T_Jimin T_Minshin
   <dbl>  <dbl> <dbl>     <dbl> <dbl>      <dbl>   <dbl>     <dbl>
 1     1      2    69         4     1          7      50        30
 2     2      2    47         3     2         NA      10        50
 3     3      2    37         2     1          1      75         0
 4     4      1    51         4     1          1     100        50
 5     5      1    38         4     2         NA      70        30
 6     6      1    71         2     1          1     100         0
 7     7      1    47         3     1          7      50        10
 8     8      1    71         2     1          1      90         0
 9     9      1    75         4     1          1     100        50
10    10      2    66         3     1          2      50        55
# … with 2,990 more rows
…
ダミー変数の作成

mutate()内にif_else()で作成

{fastDummies}パッケージを使えばより簡単にダミー変換が可能

df2 <- df2 %>%
  mutate(Voted_F_Vote       = if_else(Voted_F == "投票", 1, 0),
         Voted_F_Absent     = if_else(Voted_F == "棄権", 1, 0),
         Voted_F_Ineligible = if_else(Voted_F == "選挙権なし", 1, 0))

df2 %>%
  select(ID, Voted_F:Voted_F_Ineligible)

# A tibble: 3,000 × 6
      ID Voted_F VotedParty_F Voted_F_Vote Voted_F_Absent Voted_F_Ineligible
   <dbl> <fct>   <fct>               <dbl>          <dbl>              <dbl>
 1     1 投票    不明                    1              0                  0
 2     2 棄権    <NA>                    0              1                  0
 3     3 投票    自民                    1              0                  0
 4     4 投票    自民                    1              0                  0
 5     5 棄権    <NA>                    0              1                  0
 6     6 投票    自民                    1              0                  0
 7     7 投票    不明                    1              0                  0
 8     8 投票    自民                    1              0                  0
 9     9 投票    自民                    1              0                  0
10    10 投票    民進                    1              0                  0
# … with 2,990 more rows
…
