R for Political Science - マクロ政治データ分析実習
…
\(u\)は不偏推定量ではない！

標本不偏分散\(u^2\)は母分散の不偏推定量ではあるが、\(u\)は母標準偏差の不偏推定量ではない。したがって、\(u\)は混同を避けるために「標本不偏標準偏差」でなく、「標本不偏分散の平方根」と呼ばれる。母標準偏差の不偏推定量はもっと複雑な計算が必要。

大きい母集団で考える

成人男性1000人の身長データ（架空のデータ）

この1000人が母集団であると仮定する。

height_df <- read_csv("Data/heights.csv")
height_df

# A tibble: 1,000 × 2
      ID Height
   <dbl>  <dbl>
 1     1    166
 2     2    161
 3     3    160
 4     4    180
 5     5    170
 6     6    174
 7     7    164
 8     8    179
 9     9    173
10    10    173
# ℹ 990 more rows
…
母平均の推定と信頼区間

問題設定

2021年9月に行われた有権者調査から測定された日本維新の会に対する感情温度（0度 \(\sim\) 100度）

ishin_df <- read_csv("Data/inference_data.csv")
# Temp_Ishinが欠損したケースもあるため、後ほど除去
ishin_df

# A tibble: 2,746 × 4
      ID Female   Age Temp_Ishin
   <dbl>  <dbl> <dbl>      <dbl>
 1     1      0    44         NA
 2     2      1    32         50
 3     3      1    53         20
 4     4      1    22          0
 5     5      1    27         NA
 6     6      1    28         NA
 7     7      0    28         30
 8     8      1    45         NA
 9     9      1    33         50
10    10      0    30         NA
# ℹ 2,736 more rows
…
