R for Political Science - マクロ政治データ分析実習
…
\(Z = 3.5\)なら… (青)

\(\hat{Y} = 2 - 0.5 X + 2Z\)であるため、\(X\)が1上がると、\(Y\)は0.5下がる。

交差項を入れた回帰分析

実習用データ

library(tidyverse)
jes_df <- read_csv("Data/JES6_W1_2.csv")

jes_df

# A tibble: 3,000 × 6
   TempKyosan Female   Age Satisfaction Interest Ideology
        <dbl>  <dbl> <dbl>        <dbl>    <dbl>    <dbl>
 1         20      1    69            4        4        9
 2         20      1    47            1        1        7
 3          0      1    37            3        3       11
 4          0      0    51            4        3       11
 5         20      0    38            2        3        7
 6          0      0    71            5        4       11
 7         10      0    47            3        3        9
 8          0      0    71            4        4       11
 9         25      0    75            3        4        9
10         40      1    66            2        3        6
# … with 2,990 more rows
…
