R for Political Science – マクロ政治データ分析実習
…
トラブルが生じた場合、速やかにTAを読んでください。

時間に余裕があれば、スライド内のコードも書いておきましょう。

ロジスティック関数

実習用データ

library(tidyverse)
library(marginaleffects)
df <- read_csv("Data/Hino_Song.csv")

df

# A tibble: 2,555 × 6
   Voted Female   Age  Educ Knowledge Ideology
   <dbl>  <dbl> <dbl> <dbl>     <dbl>    <dbl>
 1     0      1    44     3         3        5
 2     0      0    57     3         4        8
 3     0      1    28     2         3        4
 4     0      0    50     4         1        3
 5     0      1    23     2         5        7
 6     0      1    32     4         1        5
 7     1      0    38     4         5       10
 8     1      0    23     4         4        7
 9     1      0    47     4         5        5
10     1      0    48     2         5        6
# ℹ 2,545 more rows
…
