R for Political Science – マクロ政治データ分析実習
…
計
4772
100.0

参考: 変数が0または1の値のみを取る場合、これから紹介する「\(t\)検定」でなく、「母比率の検定」を使うのが適切であるが、ここではより汎用性の高い\(t\)検定の例で紹介する。母比率の検定（prop.test()）についてはサポートページの講義資料を参照すること。

データの読み込み

library(tidyverse)
gacha_df <- read_csv("data/Gacha.csv")
gacha_df

# A tibble: 4,227 × 4
   player trial stone_type result
    <dbl> <dbl> <chr>      <chr> 
 1      1     1 paid       N     
 2      1     2 free       N     
 3      1     3 free       N     
 4      1     4 free       R     
 5      1     5 paid       R     
 6      1     6 free       R     
 7      1     7 free       R     
 8      1     8 free       R     
 9      1     9 free       R     
10      1    10 paid       N     
# ℹ 4,217 more rows
…
result
ガチャの結果 (N, R, SR, SSR)

ガチャ結果をダミー変換する（if_else()使用）

gacha_df <- gacha_df |>
  mutate(result_N   = if_else(result == "N", 1, 0),
         result_R   = if_else(result == "R", 1, 0),
         result_SR  = if_else(result == "SR", 1, 0),
         result_SSR = if_else(result == "SSR", 1, 0))

gacha_df

# A tibble: 4,227 × 8
   player trial stone_type result result_N result_R result_SR result_SSR
    <dbl> <dbl> <chr>      <chr>     <dbl>    <dbl>     <dbl>      <dbl>
 1      1     1 paid       N             1        0         0          0
 2      1     2 free       N             1        0         0          0
 3      1     3 free       N             1        0         0          0
 4      1     4 free       R             0        1         0          0
 5      1     5 paid       R             0        1         0          0
 6      1     6 free       R             0        1         0          0
 7      1     7 free       R             0        1         0          0
 8      1     8 free       R             0        1         0          0
 9      1     9 free       R             0        1         0          0
10      1    10 paid       N             1        0         0          0
# ℹ 4,217 more rows

ガチャ結果をダミー変換する（{fastDummies}パッケージ使用）

library(fastDummies)
gacha_df <- gacha_df |>
  dummy_cols(select_columns = "result", ignore_na = TRUE)

gacha_df

# A tibble: 4,227 × 8
   player trial stone_type result result_N result_R result_SR result_SSR
    <dbl> <dbl> <chr>      <chr>     <int>    <int>     <int>      <int>
 1      1     1 paid       N             1        0         0          0
 2      1     2 free       N             1        0         0          0
 3      1     3 free       N             1        0         0          0
 4      1     4 free       R             0        1         0          0
 5      1     5 paid       R             0        1         0          0
 6      1     6 free       R             0        1         0          0
 7      1     7 free       R             0        1         0          0
 8      1     8 free       R             0        1         0          0
 9      1     9 free       R             0        1         0          0
10      1    10 paid       N             1        0         0          0
# ℹ 4,217 more rows
…
