R for Political Science – マクロ政治データ分析実習
…
\(p \geq \alpha\)の場合、帰無仮説を受容

\(\alpha = 0.05\)を仮定

\(p\)値は約0.0121であり、\(p < \alpha\)であるため、帰無仮説を棄却する。したがって、他の条件が同じであれば、高齢者の割合は自民党の得票率を変化させると言える（or 高齢者の割合が高い都道府県ほど自民党の得票率も上がる）。

名目変数の利用

実習用データ

jes_df <- read_csv("Data/JES6_W1.csv")

jes_df

# A tibble: 3,000 × 8
   Temp_Rikken Ideology Interest Gender   Age Education   Job  Income
         <dbl>    <dbl>    <dbl>  <dbl> <dbl>     <dbl> <dbl>   <dbl>
 1          30        9        1      2    69         4     5 4333994
 2          50        7        4      2    47         3     1  979181
 3           0       11        2      2    37         2     1 8498127
 4          50       11        2      1    51         4     2 7572654
 5          30        7        2      1    38         4     1 6436713
 6           0       11        1      1    71         2     5 3410276
 7          10        9        2      1    47         3     2 8652860
 8           0       11        1      1    71         2     5  927703
 9          50        9        1      1    75         4     1 4497693
10          55        6        2      2    66         3     4 2419573
# ℹ 2,990 more rows
…
