R for Political Science – マクロ政治データ分析実習
…
トラブルが生じた場合、速やかにTAを読んでください。

時間に余裕があれば、スライド内のコードも書いておきましょう。

線形回帰：散布図への直線の当てはめ

サンプルデータの読み込み

library(tidyverse)
beer_df <- read_csv("Data/Beer.csv")

beer_df

# A tibble: 69 × 5
    Year Month Temperature Icecream  Beer
   <dbl> <dbl>       <dbl>    <dbl> <dbl>
 1  2016     1         6.1      464   452
 2  2016     2         7.2      397   584
 3  2016     3        10.1      493   750
 4  2016     4        15.4      617   835
 5  2016     5        20.2      890   794
 6  2016     6        22.4      883   961
 7  2016     7        25.4     1292  1025
 8  2016     8        27.1     1387  1021
 9  2016     9        24.4      843   748
10  2016    10        18.7      621   730
# ℹ 59 more rows
…
ビール販売量の予測値 = 576.227 + 7.355 \(\times\) 気温

解釈　気温が1度上がると、ビールの販売量は7.355万箱上がる。

単位に注意：Beerは「万箱」単位であるため、「Beerの値が1上がる」ことは「ビール販売量の予測値が1万箱上がる」ことを意味する。

単回帰と重回帰

実習データの読み込み

pref_df <- read_csv("Data/PrefData.csv")

pref_df

# A tibble: 47 × 6
      ID Pref      Jimin Zaisei Over65 Primary
   <dbl> <chr>     <dbl>  <dbl>  <dbl>   <dbl>
 1     1 Hokkaido   32.8  0.435   29.2    7.00
 2     2 Aomori     40.4  0.341   30.2   12.0 
 3     3 Iwate      34.9  0.352   30.5   10.6 
 4     4 Miyagi     36.7  0.614   25.9    4.36
 5     5 Akita      43.5  0.309   33.9    9.62
 6     6 Yamagata   42.5  0.351   30.9    9.19
 7     7 Fukushima  33.8  0.533   28.8    6.48
 8     8 Ibaraki    40.6  0.637   27.1    5.64
 9     9 Tochigi    38.8  0.640   26.3    5.52
10    10 Gunma      42.1  0.625   28.1    4.96
# ℹ 37 more rows
…
