R for Political Science – マクロ政治データ分析実習
…
データ

データ読み込み

library(tidyverse)
library(fastDummies)
library(summarytools)
library(modelsummary)
library(marginaleffects)

df <- read_csv("Data/youtube.csv")

df

# A tibble: 3,122 × 11
     fem   age  educ   inc child youtube diver1 diver2 diver3 diver4 diver5
   <dbl> <dbl> <dbl> <dbl> <dbl>   <dbl>  <dbl>  <dbl>  <dbl>  <dbl>  <dbl>
 1     0    25     5     7     1       6      1      4      4      2      3
 2     0    26     5    11     1       3      3      2      3      3      3
 3     0    28     5    10     1       4      5      5      5      5      5
 4     1    59     5     6     1       3      3      4      4      3      4
 5     1    28     5     9     1       6      2      4      4      4      4
 6     0    50     5    10     1       4      4      4      4      4      4
 7     0    44     4     2     1       2      3      4      4      3      4
 8     1    45     5    12     1       5      2      3      3      3      4
 9     1    54     5     3     2       1      4      4      4      3      4
10     0    27     5    99     1       4      3      3      3      3      3
# ℹ 3,112 more rows
…
diver1〜diver5変数を一つの変数にまとめたい。

diver1からdiver5までの平均値、因子分析、主成分分析、…

ここでは平均値を採用し、計算結果をdiversity列として追加（既存のdiver1からdiver5までの列は削除）

df <- df |> 
  mutate(diversity = diver1 + diver2 + diver3 + diver4 + diver5,
         diversity = diversity / 5) |> 
  select(-(diver1:diver5))

df

# A tibble: 3,122 × 7
     fem   age  educ   inc child youtube diversity
   <dbl> <dbl> <dbl> <dbl> <dbl>   <dbl>     <dbl>
 1     0    25     5     7     1       6       2.8
 2     0    26     5    11     1       3       2.8
 3     0    28     5    10     1       4       5  
 4     1    59     5     6     1       3       3.6
 5     1    28     5     9     1       6       3.6
 6     0    50     5    10     1       4       4  
 7     0    44     4     2     1       2       3.6
 8     1    45     5    12     1       5       3  
 9     1    54     5     3     2       1       3.8
10     0    27     5    99     1       4       3  
# ℹ 3,112 more rows

データハンドリング：欠損値処理

データのよって欠損値がNAでなく、数字になっているケースもあるため、この場合は欠損値に置換する。

学歴（educ）の欠損値は9、世帯収入（inc）の欠損値は99

df <- df |> 
  mutate(educ = if_else(educ == 9,  NA, educ), # educの値が9ならNAに、それ以外はそのままに
         inc  = if_else(inc  == 99, NA, inc))  # incの値が99ならNAに、それ以外はそのままに

df

# A tibble: 3,122 × 7
     fem   age  educ   inc child youtube diversity
   <dbl> <dbl> <dbl> <dbl> <dbl>   <dbl>     <dbl>
 1     0    25     5     7     1       6       2.8
 2     0    26     5    11     1       3       2.8
 3     0    28     5    10     1       4       5  
 4     1    59     5     6     1       3       3.6
 5     1    28     5     9     1       6       3.6
 6     0    50     5    10     1       4       4  
 7     0    44     4     2     1       2       3.6
 8     1    45     5    12     1       5       3  
 9     1    54     5     3     2       1       3.8
10     0    27     5    NA     1       4       3  
# ℹ 3,112 more rows
…
データハンドリング：欠損した行の除外

filter()かdrop_na()を使用

filter()を使用する場合、変数名 != NAでなく、!is.na(変数名)を使用する。

前期講義の「データハンドリング（1）」を参照

df <- df |> 
  filter(!is.na(educ) & !is.na(inc)) # drop_na(educ, inc) でもOK

df

# A tibble: 2,683 × 7
     fem   age  educ   inc child youtube diversity
   <dbl> <dbl> <dbl> <dbl> <dbl>   <dbl>     <dbl>
 1     0    25     5     7     1       6       2.8
 2     0    26     5    11     1       3       2.8
 3     0    28     5    10     1       4       5  
 4     1    59     5     6     1       3       3.6
 5     1    28     5     9     1       6       3.6
 6     0    50     5    10     1       4       4  
 7     0    44     4     2     1       2       3.6
 8     1    45     5    12     1       5       3  
 9     1    54     5     3     2       1       3.8
10     0    74     5    10     3       2       3.6
# ℹ 2,673 more rows

データハンドリング：名目変数のfactor化

子どもの有無（child）は名目変数だが、現在は数値型であるため、factor型変数に変換

df <- df |> 
  mutate(child = factor(child, levels = c(1, 2, 3),
                        labels = c("子どもなし", "同居中の子どもあり", "別居中の子どもあり")))

df

# A tibble: 2,683 × 7
     fem   age  educ   inc child              youtube diversity
   <dbl> <dbl> <dbl> <dbl> <fct>                <dbl>     <dbl>
 1     0    25     5     7 子どもなし               6       2.8
 2     0    26     5    11 子どもなし               3       2.8
 3     0    28     5    10 子どもなし               4       5  
 4     1    59     5     6 子どもなし               3       3.6
 5     1    28     5     9 子どもなし               6       3.6
 6     0    50     5    10 子どもなし               4       4  
 7     0    44     4     2 子どもなし               2       3.6
 8     1    45     5    12 子どもなし               5       3  
 9     1    54     5     3 同居中の子どもあり       1       3.8
10     0    74     5    10 別居中の子どもあり       2       3.6
# ℹ 2,673 more rows
…
