「マクロ政治データ分析実習」第10回課題
…
      2023年12月8日

セットアップとデータハンドリング

問題1: {tidyverse}パッケージと{summarytools}、{modelsummary}、{marginaleffects}を読み込む。特定のパッケージがインストールされていない場合は、課題に取り組む前にインストールしておくこと。続いて、課題用データ（Macro_HW10.csv）を読み込み、raw_dfという名で格納し、出力する。

課題用データ（Macro_HW10.csv）はLMSからダウンロード可能

データはプロジェクト・フォルダー内にDataというフォルダーを作成し、そこにアップロードしておくこと。

データの読み込みは必ずread_csv()関数を使うこと（read.csv()は使わない）。

# ここにRコード

# A tibble: 153 × 7
   Country       HDI    PPP  OECD Autocracy Political_Right Civil_Liberty
   <chr>       <dbl>  <dbl> <dbl>     <dbl>           <dbl>         <dbl>
 1 Afghanistan 0.496  2125.     0         1              13            14
 2 Albania     0.791 13781.     0        -9              27            40
 3 Algeria     0.759 11324.     0        -2              10            24
 4 Angola      0.574  6649.     0         2              11            21
 5 Argentina   0.83  22938.     0        -9              35            50
 6 Armenia     0.76  12974.     0        -7              21            32
 7 Australia   0.938 50001.     1       -10              40            57
 8 Austria     0.914 55824.     1       -10              37            56
 9 Azerbaijan  0.754 14257.     0         7               2             8
10 Bahrain     0.838 43624.     0        10               1            10
# ℹ 143 more rows
…
問題3: raw_dfの変数名を出力する。

# ここにRコード

[1] "Country"         "HDI"             "PPP"             "OECD"           
[5] "Autocracy"       "Political_Right" "Civil_Liberty"  

問題4: 解釈をしやすくするために、単位変換とスケール逆転を行う。一人あたり購買力平価は現在1米ドル単位であるが、これを1万米ドルに変換し、PPP2という列として追加する。また、権威主義指標を逆転（-10を10に、10を-10に）し、Democracyという列として追加する。加工後、dfという新しい名のオブジェクトとして格納し、dfを出力すること。

符号の逆転は元の変数に-1をかける。

# ここにRコード

# A tibble: 153 × 9
   Country       HDI    PPP  OECD Autocracy Political_Right Civil_Liberty  PPP2
   <chr>       <dbl>  <dbl> <dbl>     <dbl>           <dbl>         <dbl> <dbl>
 1 Afghanistan 0.496  2125.     0         1              13            14 0.213
 2 Albania     0.791 13781.     0        -9              27            40 1.38 
 3 Algeria     0.759 11324.     0        -2              10            24 1.13 
 4 Angola      0.574  6649.     0         2              11            21 0.665
 5 Argentina   0.83  22938.     0        -9              35            50 2.29 
 6 Armenia     0.76  12974.     0        -7              21            32 1.30 
 7 Australia   0.938 50001.     1       -10              40            57 5.00 
 8 Austria     0.914 55824.     1       -10              37            56 5.58 
 9 Azerbaijan  0.754 14257.     0         7               2             8 1.43 
10 Bahrain     0.838 43624.     0        10               1            10 4.36 
# ℹ 143 more rows
# ℹ 1 more variable: Democracy <dbl>
…
