「マクロ政治データ分析実習」第4回課題
…
セットアップ

問題1： {tidyverse}と{summarytools}パッケージを読み込む。

# ここにRコード

問題2： LMSからダウンロードした期末レポート用データ（Macro_HW04.csv）を読み込み、raw_dfという名のオブジェクトとして格納し、出力すること。

データはプロジェクト・フォルダー内にDataというフォルダーを作成し、そこにアップロードしておくこと。

データの読み込みは必ずread_csv()関数を使うこと（read.csv()は使わない）。

# ここにRコード

# A tibble: 648 × 9
      ID Company  Type Name                   Soup  Weight Calorie  Salt Calcium
   <dbl> <chr>   <dbl> <chr>                  <chr>  <dbl>   <dbl> <dbl>   <dbl>
 1     1 Marutai     3 博多とんこつラーメン   Yes     92.5     335   5.9       0
 2     2 Acecook     1 （袋）わかめラーメン…  Yes     88       380   5.5     297
 3     3 Nissin      1 お椀で食べるチキンラ…  Yes     31       142   2.1      42
 4     4 Myojo       2 みかさ監修 塩焼そば    Yes    165       735   7       203
 5     5 Nissin      1 0秒チキンラーメン      Yes     75       362   2.2     286
 6     6 Nissin      2 日清のどん兵衛 シビ辛… Yes     83       390   5.5     162
 7     7 Toyo        1 マルちゃん正麺　豚骨…  Yes    101       359   5.7     162
 8     8 Myojo       2 チャルメラどんぶり コ… Yes     82       374   5.4     221
 9     9 Acecook     2 スーパーカップ１．５…  Yes    108       448   6.9     356
10    10 Marutai     2 縦型ちゃんぽん         Yes     65       286   4.3     115
# ℹ 638 more rows
…
スープの有無（Soup）

Soupの値が"Yes"なら1、それ以外は0とする。

条件式が1つのみなのでif_else()の使用を推奨

カルシウム含有量（Calcium）

Calciumの値が0の場合は欠損値とし、それ以外は元のCalciumの値のままとする。

条件式が1つのみなのでif_else()の使用を推奨

# ここにRコード

# A tibble: 648 × 9
      ID Company Type  Name                    Soup Weight Calorie  Salt Calcium
   <dbl> <chr>   <chr> <chr>                  <dbl>  <dbl>   <dbl> <dbl>   <dbl>
 1     1 Marutai Stick 博多とんこつラーメン       1   92.5     335   5.9      NA
 2     2 Acecook Bag   （袋）わかめラーメン…      1   88       380   5.5     297
 3     3 Nissin  Bag   お椀で食べるチキンラ…      1   31       142   2.1      42
 4     4 Myojo   Cup   みかさ監修 塩焼そば        1  165       735   7       203
 5     5 Nissin  Bag   0秒チキンラーメン          1   75       362   2.2     286
 6     6 Nissin  Cup   日清のどん兵衛 シビ辛…     1   83       390   5.5     162
 7     7 Toyo    Bag   マルちゃん正麺　豚骨…      1  101       359   5.7     162
 8     8 Myojo   Cup   チャルメラどんぶり コ…     1   82       374   5.4     221
 9     9 Acecook Cup   スーパーカップ１．５…      1  108       448   6.9     356
10    10 Marutai Cup   縦型ちゃんぽん             1   65       286   4.3     115
# ℹ 638 more rows
…
問題12： 問題10と問題11の結果を比較し、平均値が持つ限界について述べよ。

　ここに解釈

ダミー変数の作成

問題13： dfの麺の種類（Type）は現在、文字型である。この変数を3つのダミー変数に変換する。ダミー変数の名前は以下の出力結果を参照すること。また、作成したダミー変数はType変数の後ろに位置するよう修正すること。最終的にはdfを上書きし、dfを出力する。

{fastDummies}パッケージを使用しても良い。この場合、問題1で{fastDummies}も読み込んでおくこと。

# ここにRコード

# A tibble: 648 × 12
      ID Company Type  Type_Bag Type_Cup Type_Stick Name     Soup Weight Calorie
   <dbl> <chr>   <chr>    <dbl>    <dbl>      <dbl> <chr>   <dbl>  <dbl>   <dbl>
 1     1 Marutai Stick        0        0          1 博多と…     1   92.5     335
 2     2 Acecook Bag          1        0          0 （袋）…     1   88       380
 3     3 Nissin  Bag          1        0          0 お椀で…     1   31       142
 4     4 Myojo   Cup          0        1          0 みかさ…     1  165       735
 5     5 Nissin  Bag          1        0          0 0秒チ…      1   75       362
 6     6 Nissin  Cup          0        1          0 日清の…     1   83       390
 7     7 Toyo    Bag          1        0          0 マルち…     1  101       359
 8     8 Myojo   Cup          0        1          0 チャル…     1   82       374
 9     9 Acecook Cup          0        1          0 スーパ…     1  108       448
10    10 Marutai Cup          0        1          0 縦型ち…     1   65       286
# ℹ 638 more rows
# ℹ 2 more variables: Salt <dbl>, Calcium <dbl>
…
