「マクロ政治データ分析実習」第7回課題
…
セットアップ

問題1： {tidyverse}、{summarytools}、{fastDummies}パッケージを読み込む。

# ここにRコード

問題2： LMSからダウンロードした期末レポート用データ（Macro_HW07.csv）を読み込み、raw_dfという名のオブジェクトとして格納し、出力すること。

データはプロジェクト・フォルダー内にDataというフォルダーを作成し、そこにアップロードしておくこと。

データの読み込みは必ずread_csv()関数を使うこと（read.csv()は使わない）。

# ここにRコード

# A tibble: 648 × 9
      ID Company  Type  Name                    Soup  Weight Calorie   Fat  Salt
   <dbl> <chr>    <chr> <chr>                   <chr>  <dbl>   <dbl> <dbl> <dbl>
 1     1 Toyo     Bag   ダブルラーメン しょうゆ Yes      182     806  31.2  11  
 2     2 Toyo     Bag   マルちゃん正麺　豚骨醤… Yes      101     359   6.8   5.7
 3     3 Myojo    Cup   中華三昧タテ型ビッグ …  Yes       98     379   7.8   6.9
 4     4 Toyo     Cup   緑のたぬき天そば でか…  Yes      146     720  40.2   7.5
 5     5 Acecock  Cup   濃い味好きのための　濃… Yes       96     409  15     6.6
 6     6 Nongshim Bag   ノグリラーメン 袋麺     Yes      120     494  14.9   4.6
 7     7 Marutai  Stick 四海樓監修棒ちゃんぽん  Yes      118     435  18     6.8
 8     8 Marutai  Cup   縦型ちゃんぽん          Yes       65     286  11.1   4.3
 9     9 Myojo    Cup   一平ちゃん夜店の焼そば… No       132     622  31.8   4.5
10    10 Marutai  Cup   縦型高菜ラーメン        Yes       62     291  13.7   4  
# ℹ 638 more rows
…
Salt
食塩相当量
g

Fat
脂質量
g

問題5： raw_dfからID（ID）、汁の有無（Soup）、容量（Weight）、熱量（Calorie）、脂質量（Fat）、食塩相当量（Salt）の列を抽出し、df1という名のオブジェクトとして格納する。最後にdf1を出力すること。

列の抽出は「ミクロ政治データ分析実習」の第9回、『私たちのR』の第13章を参照すること。

# ここにRコード

# A tibble: 648 × 7
      ID Type  Soup  Weight Calorie   Fat  Salt
   <dbl> <chr> <chr>  <dbl>   <dbl> <dbl> <dbl>
 1     1 Bag   Yes      182     806  31.2  11  
 2     2 Bag   Yes      101     359   6.8   5.7
 3     3 Cup   Yes       98     379   7.8   6.9
 4     4 Cup   Yes      146     720  40.2   7.5
 5     5 Cup   Yes       96     409  15     6.6
 6     6 Bag   Yes      120     494  14.9   4.6
 7     7 Stick Yes      118     435  18     6.8
 8     8 Cup   Yes       65     286  11.1   4.3
 9     9 Cup   No       132     622  31.8   4.5
10    10 Cup   Yes       62     291  13.7   4  
# ℹ 638 more rows

問題6： df1の操作を行う。操作後、df1を出力すること。

Step 1： 100g当たりの食塩相当量を計算し、Salt_100という列として追加する。

100g当たりの食塩相当量は、食塩相当量（Salt）を容量（Weight）で割り、100をかけることで計算できる。

Step 2： Step 1と同様に、100g当たりの熱量と100g当たりの脂質量を計算し、それぞれCalrorie_100、Fat_100という名の列として追加する。

Step 3： df1を上書きし、df1を出力する。

# ここにRコード

# A tibble: 648 × 10
      ID Type  Soup  Weight Calorie   Fat  Salt Salt_100 Calorie_100 Fat_100
   <dbl> <chr> <chr>  <dbl>   <dbl> <dbl> <dbl>    <dbl>       <dbl>   <dbl>
 1     1 Bag   Yes      182     806  31.2  11       6.04        443.   17.1 
 2     2 Bag   Yes      101     359   6.8   5.7     5.64        355.    6.73
 3     3 Cup   Yes       98     379   7.8   6.9     7.04        387.    7.96
 4     4 Cup   Yes      146     720  40.2   7.5     5.14        493.   27.5 
 5     5 Cup   Yes       96     409  15     6.6     6.87        426.   15.6 
 6     6 Bag   Yes      120     494  14.9   4.6     3.83        412.   12.4 
 7     7 Stick Yes      118     435  18     6.8     5.76        369.   15.3 
 8     8 Cup   Yes       65     286  11.1   4.3     6.62        440    17.1 
 9     9 Cup   No       132     622  31.8   4.5     3.41        471.   24.1 
10    10 Cup   Yes       62     291  13.7   4       6.45        469.   22.1 
# ℹ 638 more rows
…
case_when()関数を推奨する。使い方は「ミクロ政治データ分析実習」の第10回、『私たちのR』の第14章を参照すること。同じ結果が得られるのであればcase_when()以外の関数を使っても良い。

Step 3： Fat_cをfactor化する。要素の順番は"Low"、"Middle"、"High"とする。

Factor変数については「ミクロ政治データ分析実習」の第7回と第10回の資料、『私たちのR』の第16章を参照すること。

Step 4： 商品ID（ID）、麺のタイプ（Type）、100g当たり脂質量（Fat_100）、100g当たり脂質量のカテゴリー（Fat_c）列のみを抽出する。

Step 5： 処理結果をdf2に格納する。

Step 6： df2を出力する。

# ここにRコード

# A tibble: 622 × 4
      ID Type  Fat_100 Fat_c 
   <dbl> <chr>   <dbl> <fct> 
 1     1 Bag     17.1  Middle
 2     2 Bag      6.73 Low   
 3     3 Cup      7.96 Low   
 4     4 Cup     27.5  High  
 5     5 Cup     15.6  Middle
 6     6 Bag     12.4  Middle
 7     8 Cup     17.1  Middle
 8     9 Cup     24.1  High  
 9    10 Cup     22.1  High  
10    11 Cup     20.4  High  
# ℹ 612 more rows
…
