「ミクロ政治データ分析実習」第12回課題
…
セットアップ

問題1: {tidyverse}パッケージを読み込む。

# ここにRコード

問題2: LMSからダウンロードした課題用データ（Micro_HW12.csv）を読み込み、raw_dfという名のオブジェクトとして格納し、出力すること。

データはプロジェクト・フォルダー内にDataというフォルダーを作成し、そこにアップロードしておくこと。

read.csv()関数でなく、read_csv()関数を使用すること。read.csv()関数を使用する場合、サンプルページと異なる見た目の結果が出力される。むろん、減点対象である。

# ここにRコード

# A tibble: 1,684 × 10
      ID Quiz1 Quiz2 Quiz3 Quiz4 Quiz5 Quiz6 Gender   Age  Educ
   <dbl> <dbl> <dbl> <dbl> <dbl> <dbl> <dbl>  <dbl> <dbl> <dbl>
 1     1     3     4     3     1     1     1      1    73     3
 2     5     8     8     8     8     8     8      2    94     1
 3    11     8     8     8     8     8     1      2    57     3
 4    51     3     2     8     8     1     1      2    62     3
 5   104     3     2     4     8     8     1      1    50     4
 6   108     3     4     4     8     8     1      2    57     4
 7   124     3     1     2     1     1     1      1    78     1
 8   133     3     8     4     8     8     8      1    64     1
 9   139     3     4     4     8     1     1      2    57     3
10   152     3     4     4     8     8     1      1    44     4
# ℹ 1,674 more rows
…
なし

Educ
回答者の最終学歴
高いほど高学歴
9

データハンドリング

問題5: raw_dfのQuiz1からQuiz6変数を正解なら1、それ以外は0になるように再コーディングし、既存の変数に上書きする。続いて、Quiz1からQuiz6までの合計を計算し、Knowledgeという列として追加する。最後にQuiz1からQuiz6までの列を削除する。以上の結果をraw_dfに上書きし、raw_dfを出力すること。

# ここにRコード

# A tibble: 1,684 × 5
      ID Gender   Age  Educ Knowledge
   <dbl>  <dbl> <dbl> <dbl>     <dbl>
 1     1      1    73     3         6
 2     5      2    94     1         0
 3    11      2    57     3         1
 4    51      2    62     3         3
 5   104      1    50     4         2
 6   108      2    57     4         3
 7   124      1    78     1         4
 8   133      1    64     1         1
 9   139      2    57     3         4
10   152      1    44     4         3
# ℹ 1,674 more rows
…
Gender_J変数: Gender_J変数をfactor化し、要素の順番は"女性"、"男性"とする。

Educ変数: Educ変数の値が9であれば、欠損値とし、それ以外は既存のEducの変数の値のままとする。

Educ変数: Educ変数の値が4であれば"大卒以上"、それ以外は"大卒未満"とリコーディングし、Educ_Jという名の列として追加する。

Educが欠損している行を除外する。

以上の結果をdfという名のオブジェクトとして作業環境内に格納し、dfを出力する。

出力される変数（列）の順番は以下の例と一致しなくても良い。

# ここにRコード

# A tibble: 1,670 × 8
      ID Gender   Age  Educ Knowledge Age_J  Gender_J Educ_J  
   <dbl>  <dbl> <dbl> <dbl>     <dbl> <chr>  <fct>    <chr>   
 1     1      1    73     3         6 高齢層 男性     大卒未満
 2     5      2    94     1         0 高齢層 女性     大卒未満
 3    11      2    57     3         1 中年層 女性     大卒未満
 4    51      2    62     3         3 中年層 女性     大卒未満
 5   104      1    50     4         2 中年層 男性     大卒以上
 6   108      2    57     4         3 中年層 女性     大卒以上
 7   124      1    78     1         4 高齢層 男性     大卒未満
 8   133      1    64     1         1 中年層 男性     大卒未満
 9   139      2    57     3         4 中年層 女性     大卒未満
10   152      1    44     4         3 中年層 男性     大卒以上
# ℹ 1,660 more rows
…
