R for Political Science – ミクロ政治データ分析実習
…
注意：read_csv()とread.csv()は区別しよう。

　両方.csv形式データを読み込む関数であるが、read.csv()はR内蔵関数、read_csv()は{tidyverse}を読み込まないと使用できない関数である。後者の方が見やすいメリットがある。本講義ではread_csv()のみを使用する。課題の際、read.csv()関数を使うと減点とする。

データの出力

オブジェクト名、またはprint(オブジェクト名)

# my_dataの中身の出力するコード
# print(my_data) でもOK
my_data

# A tibble: 47 × 13
      ID Pref   Zaisei Over65 Under30 Jimin Minshin Komei Kyosan Ishin Shamin
   <dbl> <chr>   <dbl>  <dbl>   <dbl> <dbl>   <dbl> <dbl>  <dbl> <dbl>  <dbl>
 1     1 北海道  0.419   29.1    24.7  32.8    30.6 13.4    3.43 11.4    1.68
 2     2 青森県  0.332   30.1    23.9  40.4    24.6 12.8    3.82  8.92   3.41
 3     3 岩手県  0.341   30.4    24.5  34.9    22.4  8.61   5.16 11.2    5.29
 4     4 宮城県  0.596   25.8    27.3  36.7    25.4 13.4    3.97  9.99   3.62
 5     5 秋田県  0.299   33.8    21.4  43.5    22.7 11.2    5.17  7.56   5.12
 6     6 山形県  0.342   30.8    24.8  42.5    21.5 11.8    4.3   7.6    5.2 
 7     7 福島県  0.509   28.7    25.2  33.8    28.3 11.0    3.43 10.4    3.24
 8     8 茨城県  0.633   26.8    26.6  40.6    19.0 15.0    6.67 10.1    2.88
 9     9 栃木県  0.622   25.9    26.8  38.8    21.6 12.4   10.9   7      2.05
10    10 群馬県  0.603   27.6    26.6  42.1    19.3 13.8    5.61 10      2.44
# ℹ 37 more rows
# ℹ 2 more variables: Region2 <dbl>, Region6 <dbl>
…
読み込んだデータの出力

デフォルト
出力行数の指定
最後の6行
最後のn行

オブジェクト名、またはprint(オブジェクト名)

my_data

# A tibble: 47 × 13
      ID Pref   Zaisei Over65 Under30 Jimin Minshin Komei Kyosan Ishin Shamin
   <dbl> <chr>   <dbl>  <dbl>   <dbl> <dbl>   <dbl> <dbl>  <dbl> <dbl>  <dbl>
 1     1 北海道  0.419   29.1    24.7  32.8    30.6 13.4    3.43 11.4    1.68
 2     2 青森県  0.332   30.1    23.9  40.4    24.6 12.8    3.82  8.92   3.41
 3     3 岩手県  0.341   30.4    24.5  34.9    22.4  8.61   5.16 11.2    5.29
 4     4 宮城県  0.596   25.8    27.3  36.7    25.4 13.4    3.97  9.99   3.62
 5     5 秋田県  0.299   33.8    21.4  43.5    22.7 11.2    5.17  7.56   5.12
 6     6 山形県  0.342   30.8    24.8  42.5    21.5 11.8    4.3   7.6    5.2 
 7     7 福島県  0.509   28.7    25.2  33.8    28.3 11.0    3.43 10.4    3.24
 8     8 茨城県  0.633   26.8    26.6  40.6    19.0 15.0    6.67 10.1    2.88
 9     9 栃木県  0.622   25.9    26.8  38.8    21.6 12.4   10.9   7      2.05
10    10 群馬県  0.603   27.6    26.6  42.1    19.3 13.8    5.61 10      2.44
# ℹ 37 more rows
# ℹ 2 more variables: Region2 <dbl>, Region6 <dbl>

print(オブジェクト名, n = 行数)

print(my_data, n = 15)

# A tibble: 47 × 13
      ID Pref     Zaisei Over65 Under30 Jimin Minshin Komei Kyosan Ishin Shamin
   <dbl> <chr>     <dbl>  <dbl>   <dbl> <dbl>   <dbl> <dbl>  <dbl> <dbl>  <dbl>
 1     1 北海道    0.419   29.1    24.7  32.8    30.6 13.4    3.43 11.4    1.68
 2     2 青森県    0.332   30.1    23.9  40.4    24.6 12.8    3.82  8.92   3.41
 3     3 岩手県    0.341   30.4    24.5  34.9    22.4  8.61   5.16 11.2    5.29
 4     4 宮城県    0.596   25.8    27.3  36.7    25.4 13.4    3.97  9.99   3.62
 5     5 秋田県    0.299   33.8    21.4  43.5    22.7 11.2    5.17  7.56   5.12
 6     6 山形県    0.342   30.8    24.8  42.5    21.5 11.8    4.3   7.6    5.2 
 7     7 福島県    0.509   28.7    25.2  33.8    28.3 11.0    3.43 10.4    3.24
 8     8 茨城県    0.633   26.8    26.6  40.6    19.0 15.0    6.67 10.1    2.88
 9     9 栃木県    0.622   25.9    26.8  38.8    21.6 12.4   10.9   7      2.05
10    10 群馬県    0.603   27.6    26.6  42.1    19.3 13.8    5.61 10      2.44
11    11 埼玉県    0.765   24.8    27.7  32.3    20.4 16      7.23 13.9    1.91
12    12 千葉県    0.777   25.9    26.7  37.8    21.7 14.0    5.46 11.3    2.01
13    13 東京都    1.00    22.7    27.4  34.4    19.8 11.4    7.34 14.2    2.82
14    14 神奈川県  0.917   23.9    27.8  34.9    21.5 12.2    7.77 12.5    2.79
15    15 新潟県    0.435   29.9    25.2  43.7    25.2  8.27   4.39  8      3.76
# ℹ 32 more rows
# ℹ 2 more variables: Region2 <dbl>, Region6 <dbl>
…
