R for Political Science – ミクロ政治データ分析実習
…
表形式ファイルの読み込み

read_csv()を使用する前に{tidyverse}を読み込んでおく（今回は読み込み済み）。

サンプルデータはLMSから入手可能

プロジェクトフォルダーのDataフォルダー内のBuildingData.csvを読み込み、my_df3という名のオブジェクトとして格納

dataフォルダーならdata/BuildingData.csv、プロジェクトフォルダーに直接入れたのであればBuildingData.csvのみ

my_df3 <- read_csv("Data/BuildingData.csv")

my_df3

# A tibble: 47 × 5
      ID Pref   Finance Above65 Turnout
   <dbl> <chr>    <dbl>   <dbl>   <dbl>
 1     1 北海道   0.446    32.3    54.0
 2     2 青森県   0.342    33.7    49.5
 3     3 岩手県   0.359    33.8    55.4
 4     4 宮城県   0.597    28.4    48.8
 5     5 秋田県   0.311    37.6    55.6
 6     6 山形県   0.362    34.0    61.9
 7     7 福島県   0.522    31.8    53.4
 8     8 茨城県   0.631    30.3    47.2
 9     9 栃木県   0.620    29.6    47.0
10    10 群馬県   0.612    30.9    48.5
# ℹ 37 more rows
…
class(my_df3[c(13, 27, 40), ])

[1] "tbl_df"     "tbl"        "data.frame"

データ・フレーム: 列の抽出 (1)

my_df3[, 2]

# A tibble: 47 × 1
   Pref  
   <chr> 
 1 北海道
 2 青森県
 3 岩手県
 4 宮城県
 5 秋田県
 6 山形県
 7 福島県
 8 茨城県
 9 栃木県
10 群馬県
# ℹ 37 more rows

class(my_df3[, 2])

[1] "tbl_df"     "tbl"        "data.frame"

my_df3[, c(2, 4, 5)]

# A tibble: 47 × 3
   Pref   Above65 Turnout
   <chr>    <dbl>   <dbl>
 1 北海道    32.3    54.0
 2 青森県    33.7    49.5
 3 岩手県    33.8    55.4
 4 宮城県    28.4    48.8
 5 秋田県    37.6    55.6
 6 山形県    34.0    61.9
 7 福島県    31.8    53.4
 8 茨城県    30.3    47.2
 9 栃木県    29.6    47.0
10 群馬県    30.9    48.5
# ℹ 37 more rows
…
