R for Political Science - ミクロ政治データ分析実習
…
Wide型からLong型へ

整然なCOVID_dfの構造は?

5列を1列にまとめるため、縦に長くなる

WideからLongへ

# A tibble: 25 × 4
   Country Population Date       New_Cases
   <chr>        <dbl> <chr>          <dbl>
 1 China   1447470092 2022/06/09       819
 2 China   1447470092 2022/06/10       848
 3 China   1447470092 2022/06/11      1114
 4 China   1447470092 2022/06/12       990
 5 China   1447470092 2022/06/13       957
 6 Japan    126476461 2022/06/09     16788
 7 Japan    126476461 2022/06/10     15584
 8 Japan    126476461 2022/06/11     15338
 9 Japan    126476461 2022/06/12     13381
10 Japan    126476461 2022/06/13      7942
# ℹ 15 more rows
…
pivot_longer(): WideからLongへ

cols = starts_with("2022")もOK

COVID_Long <- COVID_df |> 
  pivot_longer(cols      = "2022/06/09":"2022/06/13",
               names_to  = "Date",
               values_to = "New_Cases")
COVID_Long

# A tibble: 25 × 4
   Country Population Date       New_Cases
   <chr>        <dbl> <chr>          <dbl>
 1 China   1447470092 2022/06/09       819
 2 China   1447470092 2022/06/10       848
 3 China   1447470092 2022/06/11      1114
 4 China   1447470092 2022/06/12       990
 5 China   1447470092 2022/06/13       957
 6 Japan    126476461 2022/06/09     16788
 7 Japan    126476461 2022/06/10     15584
 8 Japan    126476461 2022/06/11     15338
 9 Japan    126476461 2022/06/12     13381
10 Japan    126476461 2022/06/13      7942
# ℹ 15 more rows
…
例) Date列を"/"を基準に分割する

データ |>
  separate(col  = "分割する列名",
           into = c("分割後の列名1", "分割後の列名2", ...),
           sep  = "分割する基準")

separate(): 列の分割

COVID_Long |>
  separate(col  = "Date",
           into = c("Year", "Month", "Day"),
           sep  = "/")

# A tibble: 25 × 6
   Country Population Year  Month Day   New_Cases
   <chr>        <dbl> <chr> <chr> <chr>     <dbl>
 1 China   1447470092 2022  06    09          819
 2 China   1447470092 2022  06    10          848
 3 China   1447470092 2022  06    11         1114
 4 China   1447470092 2022  06    12          990
 5 China   1447470092 2022  06    13          957
 6 Japan    126476461 2022  06    09        16788
 7 Japan    126476461 2022  06    10        15584
 8 Japan    126476461 2022  06    11        15338
 9 Japan    126476461 2022  06    12        13381
10 Japan    126476461 2022  06    13         7942
# ℹ 15 more rows
…
