R for Political Science – ミクロ政治データ分析実習
…
{ggplot2}のイメージ (1)

データの読み込み&ハンドリング

library(tidyverse)
df <- read_csv("Data/countries.csv")

df <- df |> # OECD変数をリコーディングし、OECD_Jへ
   mutate(OECD_J = if_else(OECD == 1, "加盟国", "非加盟国")) |>
   select(Country, PPP_per_capita, HDI_2018, FH_Status, OECD_J, Continent)

df

# A tibble: 186 × 6
   Country             PPP_per_capita HDI_2018 FH_Status OECD_J   Continent
   <chr>                        <dbl>    <dbl> <chr>     <chr>    <chr>    
 1 Afghanistan                  2125.    0.496 NF        非加盟国 Asia     
 2 Albania                     13781.    0.791 PF        非加盟国 Europe   
 3 Algeria                     11324.    0.759 NF        非加盟国 Africa   
 4 Andorra                        NA     0.857 F         非加盟国 Europe   
 5 Angola                       6649.    0.574 NF        非加盟国 Africa   
 6 Antigua and Barbuda         21267.    0.776 F         非加盟国 America  
 7 Argentina                   22938.    0.83  F         非加盟国 America  
 8 Armenia                     12974.    0.76  PF        非加盟国 Europe   
 9 Australia                   50001.    0.938 F         加盟国   Oceania  
10 Austria                     55824.    0.914 F         加盟国   Europe   
# ℹ 176 more rows
…
例) FH_Stautsの棒グラフを大陸ごとに出力

# データの用意
# 参考) 「\n」は図内の改行を意味する。
df <- df |>
   mutate(FH_Status = case_when(FH_Status == "F"  ~ "自由",
                                FH_Status == "PF" ~ "部分的に\n自由",
                                TRUE              ~ "不自由"),
          FH_Status = factor(FH_Status,
                             levels = c("自由", "部分的に\n自由", "不自由"))) |>
   drop_na(FH_Status)

df

# A tibble: 186 × 6
   Country             PPP_per_capita HDI_2018 FH_Status        OECD_J Continent
   <chr>                        <dbl>    <dbl> <fct>            <chr>  <chr>    
 1 Afghanistan                  2125.    0.496 "不自由"         非加盟国…… Asia     
 2 Albania                     13781.    0.791 "部分的に\n自由" 非加盟国…… Europe   
 3 Algeria                     11324.    0.759 "不自由"         非加盟国…… Africa   
 4 Andorra                        NA     0.857 "自由"           非加盟国…… Europe   
 5 Angola                       6649.    0.574 "不自由"         非加盟国…… Africa   
 6 Antigua and Barbuda         21267.    0.776 "自由"           非加盟国…… America  
 7 Argentina                   22938.    0.83  "自由"           非加盟国…… America  
 8 Armenia                     12974.    0.76  "部分的に\n自由" 非加盟国…… Europe   
 9 Australia                   50001.    0.938 "自由"           加盟国 Oceania  
10 Austria                     55824.    0.914 "自由"           加盟国 Europe   
# ℹ 176 more rows
…
