第7回講義資料 – R for Political Science
…
gacha_df   <- read_csv("Data/Gacha2.csv")
subsidy_df <- read_csv("Data/Subsidy.csv")
pasta_df   <- read_csv("Data/Pasta.csv")

\(t\)検定

　まずはgacha_dfの中身を確認する。このデータは前回講義データと同じデータであるが、ガチャ結果（result）の列をダミー変数にしたものを追加したデータである。

Code 02

gacha_df

# A tibble: 4,772 × 8
   player trial stone_type result result_N result_R result_SR result_SSR
    <dbl> <dbl> <chr>      <chr>     <dbl>    <dbl>     <dbl>      <dbl>
 1      1     1 Paid       R             0        1         0          0
 2      1     2 Paid       R             0        1         0          0
 3      1     3 Paid       SR            0        0         1          0
 4      1     4 Free       R             0        1         0          0
 5      1     5 Paid       N             1        0         0          0
 6      1     6 Free       N             1        0         0          0
 7      1     7 Free       SSR           0        0         0          1
 8      1     8 Free       N             1        0         0          0
 9      1     9 Free       N             1        0         0          0
10      1    10 Free       N             1        0         0          0
# ℹ 4,762 more rows
…
\(t\)検定は2群間の平均値の差の検定

　もし平均値を比較するグループが3つ以上である場合は、\(t\)検定を行わず、分散分析（Analysis of variance; ANOVA）を実施する。詳しいことはインターネットで検索してみよう。

相関分析

　まずはsubsidy_dfの中身を確認してみよう。

Code 10

subsidy_df

# A tibble: 47 × 4
      ID Pref   Turnout Subsidy
   <dbl> <chr>    <dbl>   <dbl>
 1     1 北海道    60.3   134. 
 2     2 青森県    54.2   193. 
 3     3 岩手県    59.1   265. 
 4     4 宮城県    52.8    98.2
 5     5 秋田県    60.6   219. 
 6     6 山形県    64.1   187. 
 7     7 福島県    56.7   166. 
 8     8 茨城県    51.5    76.3
 9     9 栃木県    51.7    72.8
10    10 群馬県    52.0    76.6
# ℹ 37 more rows
…
　相関係数は約0.398であり、\(p\)値は約0.006である。\(p\)値が一般的に使われる有意水準（\(\alpha = 0.05\)）より小さいことから、統計的に有意な「正の」相関関係があると考えられる。つまり、「投票率が高い都道府県ほど一人あたり補助金額が多い傾向がある」ことを意味する。

　ただし、この相関関係が因果関係、つまり「投票率が上がると補助金額が増える」ということを意味するわけではない。そもそも投票率が原因で、補助金額が結果であるかどうかすらも不明である。補助金額が増えることによって、有権者がその見返りとして投票に参加したかも知れない。相関関係と因果関係は厳格に区別すべきであり、そのためには緻密な理論・仮説、もしくは研究デザインが必要である。

\(\chi^2\)検定

　まずはpasta_dfの中身を確認してみよう。

Code 16

pasta_df

# A tibble: 1,135 × 4
      ID Female Over40 Pasta      
   <dbl>  <dbl>  <dbl> <chr>      
 1     1      0      0 Naporitan  
 2     2      1      0 Naporitan  
 3     3      0      0 Naporitan  
 4     4      0      0 Carbonara  
 5     5      0      0 Naporitan  
 6     6      0      1 MeatSauce  
 7     7      0      1 Peperoncino
 8     8      0      1 MeatSauce  
 9     9      1      0 Carbonara  
10    10      0      0 Carbonara  
# ℹ 1,125 more rows

　つづいて、Female変数とOver40変数をリコーディングし、それぞれGender_DとOver40_Dという新しい列として追加する。具体的にはFemaleの値が1なら"Female"、それ以外は"Male"の値を割り当てたGender_D変数を作成し、Over40の値が1なら"41 to 80"、それ以外は"18 to 40"の値を割り当てたOver40_Dを作成する。各変数はfactor()関数を使ってfactor化する。要素の順番はGender_Dの場合"Male"、"Female"、Over40_Dは"18 to 40"、"41 to 80"とする。

Code 17

pasta_df <- pasta_df |>
  mutate(Gender_D = if_else(Female == 1, "Female", "Male"),
         Gender_D = factor(Gender_D, levels = c("Male", "Female")),
         Over40_D = if_else(Over40 == 1, "41 to 80", "18 to 40"),
         Over40_D = factor(Over40_D, levels = c("18 to 40", "41 to 80")))

pasta_df

# A tibble: 1,135 × 6
      ID Female Over40 Pasta       Gender_D Over40_D
   <dbl>  <dbl>  <dbl> <chr>       <fct>    <fct>   
 1     1      0      0 Naporitan   Male     18 to 40
 2     2      1      0 Naporitan   Female   18 to 40
 3     3      0      0 Naporitan   Male     18 to 40
 4     4      0      0 Carbonara   Male     18 to 40
 5     5      0      0 Naporitan   Male     18 to 40
 6     6      0      1 MeatSauce   Male     41 to 80
 7     7      0      1 Peperoncino Male     41 to 80
 8     8      0      1 MeatSauce   Male     41 to 80
 9     9      1      0 Carbonara   Female   18 to 40
10    10      0      0 Carbonara   Male     18 to 40
# ℹ 1,125 more rows
…
