R for Political Science - 第4回講義資料
…
　続いてデータを読み込もう。実習に使用するデータはdescstat_data.csvであり、LMSから入手可能だ。.csv形式データを読み込む関数はread_csv()であり、()内にはパスを含むファイル名を入力する。パス+ファイル名は必ず"で囲むこと。たとえば、プロジェクト・フォルダー内のDataフォルダー内のdescstat_data.csvファイルなら、"Data/descstat_data.csv"と入力する。また、read_csv()だけだとデータが読み込まれて出力されるだけで終わる。つまり、現在の作業環境内に残らない。作業環境にデータを格納するためには<-演算子を使用する。ここではデータを読み込み、raw_dfという名のオブジェクトとして作業環境内に格納しておこう。

　パス（path）とは何かについてよく分からない人は授業後でも良いので必ず「ファイル・システム」を精読すること。

Code 03

raw_df <- read_csv("Data/descstat_data.csv")

　データの中身を見るためにはオブジェクト名のみ入力すれば良い。

Code 04

raw_df

# A tibble: 3,000 × 48
   USER_ID    Q1    Q2    Q3    Q4  Q5_1  Q5_2  Q5_3  Q5_4  Q5_5  Q5_6  Q5_7  Q5_8  Q5_9 Q5_10 Q5_11
     <dbl> <dbl> <dbl> <dbl> <dbl> <dbl> <dbl> <dbl> <dbl> <dbl> <dbl> <dbl> <dbl> <dbl> <dbl> <dbl>
 1       1     3     3     1     1    80    80    70    50    40    20    50    45    20    30    30
 2       2     2     2     2     8     0    25    30    30    60    30    10    20    20    10    50
 3       3     3     1     1     8    80    10     0     0     0     0    75     0     0     0     0
 4       4     3     3     1     1   100    50     0     0    50     0   100    50     0     0    50
 5       5     3     3     2     3    70    40    40    50    30    20    70    40    40    50    30
 6       6     3     1     1     1   100     0     0     0     0     0   100     0     0     0     0
 7       7     3     3     1     6   100    10    20    10    10    10    50    10    20    20    10
 8       8     3     1     1     6    80     0    60    55     0     0    90     0     5    10     0
 9       9     3     1     1     1   100    50   100    75    50    25   100    50    75    75    50
10      10     3     3     1     8    25    25    25    25    55    50    50    20    25    30    55
# ℹ 2,990 more rows
# ℹ 32 more variables: Q5_12 <dbl>, Q6_1 <dbl>, Q6_2 <dbl>, Q6_3 <dbl>, Q6_4 <dbl>, Q6_5 <dbl>,
#   Q7 <dbl>, Q8 <dbl>, Q9 <dbl>, Q10_1 <dbl>, Q10_2 <dbl>, Q10_3 <dbl>, Q10_4 <dbl>, Q10_5 <dbl>,
#   Q10_6 <dbl>, Q10_7 <dbl>, Q10_8 <dbl>, Q11 <dbl>, Q12 <dbl>, Q12S1 <dbl>, Q13 <dbl>,
#   Q13S1 <dbl>, Q13S2 <dbl>, Q14 <dbl>, Q14S1 <dbl>, Q15 <dbl>, Q15S1 <dbl>, Q15S2 <dbl>,
#   Q61 <dbl>, gender <dbl>, age <dbl>, chiiki <dbl>
…
　また、データの大きさはdim()関数でも確認することができる。

Code 06

dim(raw_df)

[1] 3000   48

　最後に出力される画面の行数についてだが、デフォルトでは10行出力となっている。もし、15行を出力したい場合はprint()関数を使用し、n引数で指定することができる。

Code 07

print(raw_df, n = 15)

# A tibble: 3,000 × 48
   USER_ID    Q1    Q2    Q3    Q4  Q5_1  Q5_2  Q5_3  Q5_4  Q5_5  Q5_6  Q5_7  Q5_8  Q5_9 Q5_10 Q5_11
     <dbl> <dbl> <dbl> <dbl> <dbl> <dbl> <dbl> <dbl> <dbl> <dbl> <dbl> <dbl> <dbl> <dbl> <dbl> <dbl>
 1       1     3     3     1     1    80    80    70    50    40    20    50    45    20    30    30
 2       2     2     2     2     8     0    25    30    30    60    30    10    20    20    10    50
 3       3     3     1     1     8    80    10     0     0     0     0    75     0     0     0     0
 4       4     3     3     1     1   100    50     0     0    50     0   100    50     0     0    50
 5       5     3     3     2     3    70    40    40    50    30    20    70    40    40    50    30
 6       6     3     1     1     1   100     0     0     0     0     0   100     0     0     0     0
 7       7     3     3     1     6   100    10    20    10    10    10    50    10    20    20    10
 8       8     3     1     1     6    80     0    60    55     0     0    90     0     5    10     0
 9       9     3     1     1     1   100    50   100    75    50    25   100    50    75    75    50
10      10     3     3     1     8    25    25    25    25    55    50    50    20    25    30    55
11      11     1     2     2     3    60    30    25    10    10     0    60    10    10     5     1
12      12     2     2     2     6    50    50    50    50    50    50    50    50    50    50    50
13      13     3     1     1     3   100     5    30     5     0     0   100     0    10     5     0
14      14     3     3     2     8    60    70    70    50    70    50    50    60    60    50    60
15      15     2     3     3     7    50    50    50    50    50    50    50    50    50    50    50
# ℹ 2,985 more rows
# ℹ 32 more variables: Q5_12 <dbl>, Q6_1 <dbl>, Q6_2 <dbl>, Q6_3 <dbl>, Q6_4 <dbl>, Q6_5 <dbl>,
#   Q7 <dbl>, Q8 <dbl>, Q9 <dbl>, Q10_1 <dbl>, Q10_2 <dbl>, Q10_3 <dbl>, Q10_4 <dbl>, Q10_5 <dbl>,
#   Q10_6 <dbl>, Q10_7 <dbl>, Q10_8 <dbl>, Q11 <dbl>, Q12 <dbl>, Q12S1 <dbl>, Q13 <dbl>,
#   Q13S1 <dbl>, Q13S2 <dbl>, Q14 <dbl>, Q14S1 <dbl>, Q15 <dbl>, Q15S1 <dbl>, Q15S2 <dbl>,
#   Q61 <dbl>, gender <dbl>, age <dbl>, chiiki <dbl>
…
Code 08

df <- raw_df |>
  select(ID           = USER_ID, # 回答者ID
         Gender       = gender,  # 性別
         Age          = age,     # 年齢
         Education    = Q61,     # 最終学歴
         Voted        = Q15,     # 投票参加 (2016参院選)
         VotedParty   = Q15S2,   # 投票先 (2016参院選)
         T_Jimin      = Q5_7,    # 自民に対する感情温度
         T_Minshin    = Q5_11)   # 民進に対する感情温度

df

# A tibble: 3,000 × 8
      ID Gender   Age Education Voted VotedParty T_Jimin T_Minshin
   <dbl>  <dbl> <dbl>     <dbl> <dbl>      <dbl>   <dbl>     <dbl>
 1     1      2    69         4     1          7      50        30
 2     2      2    47         3     2         NA      10        50
 3     3      2    37        99     1          1      75         0
 4     4      1    51         4     1          1     100        50
 5     5      1    38        99     2         NA      70        30
 6     6      1    71         2     1          1     100         0
 7     7      1    47         3     1          7      50        10
 8     8      1    71         2     1          1      90         0
 9     9      1    75         4     1          1     100        50
10    10      2    66         3     1          2      50        55
# ℹ 2,990 more rows
　続いて、投票参加有無を示すVoted変数をリコーディングする。元のVoted変数は1と2の値で構成されており、1は「投票」、2は「棄権」を意味する。このVoted列を修正したい。具体的にはVotedの元の値が1なら1に、それ以外なら0に修正したい。「ある条件を満たせばX、それ以外はYを返す」場合はif_else()関数が有効である。if_else()関数には3つの引数が必要であり、「1. 条件文」、「2. 条件が満たされた場合の戻り値」、「3. 条件が満たされない場合の戻り値」だ。Votedが1か否かを判定する条件文はVoted == 1（=でなく、==であることに注意）であるため、if_else(Voted == 1, 1, 0)となる（元の値が数値型でなく、文字型である場合は値を"で囲むこと）。このリコーディングの結果をVotedに上書きしたい。特定の列を修正したり、追加する関数はmutate()だ。mutate()内での書き方はmutate(修正/追加したい変数 = 修正内容)である（ここは==でなく=であることに注意）。

　また、Education変数もリコーディングする。Educationは1以上4以下の整数のみをとる変数であるが、99という値も含まれている。この99は欠損値を意味している（どの値が欠損値を意味するかはデータによって異なる。自分が作成したデータでない場合、必ずコードブックに目を通しておこう）。これを99のままにすると、分析上、大きな問題を招きかねない。したがって、予め99を欠損値（NA）に変更しておく必要がある。つまり、Educationの値が99なら（Education == 99）NAを、それ以外の場合は元のEducationの値をとるようにリコーディングする。

　以上の手順は以下のように記述する。dfを上書きしないと変更内容が保存されないため、上書きも忘れずに1。

Code 09

df <- df |>
  mutate(Voted     = if_else(Voted == 1, 1, 0),
         Education = if_else(Education == 99, NA, Education))

df

# A tibble: 3,000 × 8
      ID Gender   Age Education Voted VotedParty T_Jimin T_Minshin
   <dbl>  <dbl> <dbl>     <dbl> <dbl>      <dbl>   <dbl>     <dbl>
 1     1      2    69         4     1          7      50        30
 2     2      2    47         3     0         NA      10        50
 3     3      2    37        NA     1          1      75         0
 4     4      1    51         4     1          1     100        50
 5     5      1    38        NA     0         NA      70        30
 6     6      1    71         2     1          1     100         0
 7     7      1    47         3     1          7      50        10
 8     8      1    71         2     1          1      90         0
 9     9      1    75         4     1          1     100        50
10    10      2    66         3     1          2      50        55
# ℹ 2,990 more rows
…
　それでは、if_else()関数を使って男性ダミー変数（Male）と女性ダミー変数（Female）を作ってみよう。このダミー変数はGender列の後ろにし、df2という名のオブジェクトとして格納する。

Code 14

df2 <- df |>
  mutate(Male   = if_else(Gender == 1, 1, 0),
         Female = if_else(Gender == 2, 1, 0),
         .after = Gender)

df2

# A tibble: 3,000 × 10
      ID Gender  Male Female   Age Education Voted VotedParty T_Jimin T_Minshin
   <dbl>  <dbl> <dbl>  <dbl> <dbl>     <dbl> <dbl>      <dbl>   <dbl>     <dbl>
 1     1      2     0      1    69         4     1          7      50        30
 2     2      2     0      1    47         3     0         NA      10        50
 3     3      2     0      1    37        NA     1          1      75         0
 4     4      1     1      0    51         4     1          1     100        50
 5     5      1     1      0    38        NA     0         NA      70        30
 6     6      1     1      0    71         2     1          1     100         0
 7     7      1     1      0    47         3     1          7      50        10
 8     8      1     1      0    71         2     1          1      90         0
 9     9      1     1      0    75         4     1          1     100        50
10    10      2     0      1    66         3     1          2      50        55
# ℹ 2,990 more rows
…
Code 15

df2 <- df2 |>
  mutate(VotedParty_Jimin   = if_else(VotedParty == 1, 1, 0),
         VotedParty_Minshin = if_else(VotedParty == 2, 1, 0),
         VotedParty_Komei   = if_else(VotedParty == 3, 1, 0),
         VotedParty_Ishin   = if_else(VotedParty == 4, 1, 0),
         VotedParty_Kyosan  = if_else(VotedParty == 5, 1, 0),
         VotedParty_Etc     = if_else(VotedParty == 6, 1, 0),
         VotedParty_DK      = if_else(VotedParty == 7, 1, 0),
         .after             = VotedParty)

df2

# A tibble: 3,000 × 17
      ID Gender  Male Female   Age Education Voted VotedParty VotedParty_Jimin VotedParty_Minshin
   <dbl>  <dbl> <dbl>  <dbl> <dbl>     <dbl> <dbl>      <dbl>            <dbl>              <dbl>
 1     1      2     0      1    69         4     1          7                0                  0
 2     2      2     0      1    47         3     0         NA               NA                 NA
 3     3      2     0      1    37        NA     1          1                1                  0
 4     4      1     1      0    51         4     1          1                1                  0
 5     5      1     1      0    38        NA     0         NA               NA                 NA
 6     6      1     1      0    71         2     1          1                1                  0
 7     7      1     1      0    47         3     1          7                0                  0
 8     8      1     1      0    71         2     1          1                1                  0
 9     9      1     1      0    75         4     1          1                1                  0
10    10      2     0      1    66         3     1          2                0                  1
# ℹ 2,990 more rows
# ℹ 7 more variables: VotedParty_Komei <dbl>, VotedParty_Ishin <dbl>, VotedParty_Kyosan <dbl>,
#   VotedParty_Etc <dbl>, VotedParty_DK <dbl>, T_Jimin <dbl>, T_Minshin <dbl>

　あとはGenderとVotedParty列は不要なので、こちらを除外する。

Code 16

df2 <- df2 |>
  select(-c(Gender, VotedParty))

df2

# A tibble: 3,000 × 15
      ID  Male Female   Age Education Voted VotedParty_Jimin VotedParty_Minshin VotedParty_Komei
   <dbl> <dbl>  <dbl> <dbl>     <dbl> <dbl>            <dbl>              <dbl>            <dbl>
 1     1     0      1    69         4     1                0                  0                0
 2     2     0      1    47         3     0               NA                 NA               NA
 3     3     0      1    37        NA     1                1                  0                0
 4     4     1      0    51         4     1                1                  0                0
 5     5     1      0    38        NA     0               NA                 NA               NA
 6     6     1      0    71         2     1                1                  0                0
 7     7     1      0    47         3     1                0                  0                0
 8     8     1      0    71         2     1                1                  0                0
 9     9     1      0    75         4     1                1                  0                0
10    10     0      1    66         3     1                0                  1                0
# ℹ 2,990 more rows
# ℹ 6 more variables: VotedParty_Ishin <dbl>, VotedParty_Kyosan <dbl>, VotedParty_Etc <dbl>,
#   VotedParty_DK <dbl>, T_Jimin <dbl>, T_Minshin <dbl>
…
　それではまず、dfのGenderとVotedParty列をfactor化してみよう。Genderの場合、値が1なら"Male"、2なら"Female"を付ける。VotedPartyは値が1なら"Jimin"、2なら"Minshin"、3なら"Komei"、4なら"Ishin"、5なら"Kyosan"、6なら"Etc"（その他の政党）、7なら"DK"（覚えていない/答えたくない）とする。修正後、dfはdf3という名の新しいオブジェクトとして作業環境内に格納する。

Code 17

df3 <- df |>
  mutate(Gender     = factor(Gender, levels = c(1, 2), 
                             labels = c("Male", "Female")),
         VotedParty = factor(VotedParty, levels = 1:7,
                             labels = c("Jimin", "Minshin", "Komei", "Ishin",
                                        "Kyosan", "Etc", "DK"))) 

df3

# A tibble: 3,000 × 8
      ID Gender   Age Education Voted VotedParty T_Jimin T_Minshin
   <dbl> <fct>  <dbl>     <dbl> <dbl> <fct>        <dbl>     <dbl>
 1     1 Female    69         4     1 DK              50        30
 2     2 Female    47         3     0 <NA>            10        50
 3     3 Female    37        NA     1 Jimin           75         0
 4     4 Male      51         4     1 Jimin          100        50
 5     5 Male      38        NA     0 <NA>            70        30
 6     6 Male      71         2     1 Jimin          100         0
 7     7 Male      47         3     1 DK              50        10
 8     8 Male      71         2     1 Jimin           90         0
 9     9 Male      75         4     1 Jimin          100        50
10    10 Female    66         3     1 Minshin         50        55
# ℹ 2,990 more rows

　続いて、{fastDummies}のdummy_cols()関数でGenderとVotedPartyをダミー変数に変換する。第一引数はダミー変数にしたい変数の名前を"で囲んだものを入れる。2つ以上の変数をダミー化するならc()でまとめる。続いて、ignore_na = TRUEを指定する。これを指定しない場合、「欠損か否か」のダミー変数まで作成される。つづいて、元の変数（GenderとVotedParty）を除外する。

Code 18

df3 <- df3 |>
  dummy_cols(c("Gender", "VotedParty"), ignore_na = TRUE) |>
  select(-c(Gender, VotedParty))

df3

# A tibble: 3,000 × 15
      ID   Age Education Voted T_Jimin T_Minshin Gender_Male Gender_Female VotedParty_Jimin
   <dbl> <dbl>     <dbl> <dbl>   <dbl>     <dbl>       <int>         <int>            <int>
 1     1    69         4     1      50        30           0             1                0
 2     2    47         3     0      10        50           0             1               NA
 3     3    37        NA     1      75         0           0             1                1
 4     4    51         4     1     100        50           1             0                1
 5     5    38        NA     0      70        30           1             0               NA
 6     6    71         2     1     100         0           1             0                1
 7     7    47         3     1      50        10           1             0                0
 8     8    71         2     1      90         0           1             0                1
 9     9    75         4     1     100        50           1             0                1
10    10    66         3     1      50        55           0             1                0
# ℹ 2,990 more rows
# ℹ 6 more variables: VotedParty_Minshin <int>, VotedParty_Komei <int>, VotedParty_Ishin <int>,
#   VotedParty_Kyosan <int>, VotedParty_Etc <int>, VotedParty_DK <int>

　これでダミー化は完了だ。ここで更に変数名を変更し、位置を調整してみよう。たとえば、Gender_MaleはMaleに、Gender_FemaleはFemaleに変更し、ID列の後ろへ移動させるとしよう。この場合、relocate()関数を使用する。列名を変更する場合は新しい変数名 = 既存の変数名と指定し、.after、あるいは.beforeで位置を指定する。

Code 19

df3 <- df3 |>
  relocate(Male   = Gender_Male,
           Female = Gender_Female,
           .after = ID)

df3

# A tibble: 3,000 × 15
      ID  Male Female   Age Education Voted T_Jimin T_Minshin VotedParty_Jimin VotedParty_Minshin
   <dbl> <int>  <int> <dbl>     <dbl> <dbl>   <dbl>     <dbl>            <int>              <int>
 1     1     0      1    69         4     1      50        30                0                  0
 2     2     0      1    47         3     0      10        50               NA                 NA
 3     3     0      1    37        NA     1      75         0                1                  0
 4     4     1      0    51         4     1     100        50                1                  0
 5     5     1      0    38        NA     0      70        30               NA                 NA
 6     6     1      0    71         2     1     100         0                1                  0
 7     7     1      0    47         3     1      50        10                0                  0
 8     8     1      0    71         2     1      90         0                1                  0
 9     9     1      0    75         4     1     100        50                1                  0
10    10     0      1    66         3     1      50        55                0                  1
# ℹ 2,990 more rows
# ℹ 5 more variables: VotedParty_Komei <int>, VotedParty_Ishin <int>, VotedParty_Kyosan <int>,
#   VotedParty_Etc <int>, VotedParty_DK <int>

　続いて、VotedParty_JiminからVotedParty_DKまでの列をVoted列の後ろへ動かしてみよう。変数選択の場合、:演算子を使うと「〜から〜まで」の指定ができる。

Code 20

df3 <- df3 |>
  relocate(VotedParty_Jimin:VotedParty_DK, .after = Voted)

df3

# A tibble: 3,000 × 15
      ID  Male Female   Age Education Voted VotedParty_Jimin VotedParty_Minshin VotedParty_Komei
   <dbl> <int>  <int> <dbl>     <dbl> <dbl>            <int>              <int>            <int>
 1     1     0      1    69         4     1                0                  0                0
 2     2     0      1    47         3     0               NA                 NA               NA
 3     3     0      1    37        NA     1                1                  0                0
 4     4     1      0    51         4     1                1                  0                0
 5     5     1      0    38        NA     0               NA                 NA               NA
 6     6     1      0    71         2     1                1                  0                0
 7     7     1      0    47         3     1                0                  0                0
 8     8     1      0    71         2     1                1                  0                0
 9     9     1      0    75         4     1                1                  0                0
10    10     0      1    66         3     1                0                  1                0
# ℹ 2,990 more rows
# ℹ 6 more variables: VotedParty_Ishin <int>, VotedParty_Kyosan <int>, VotedParty_Etc <int>,
#   VotedParty_DK <int>, T_Jimin <dbl>, T_Minshin <dbl>
…
