R for Political Science - 第5回講義資料
…
セットアップ

　今回使用するパッケージは{tidyverse}のみだ。データはinference_data.csvであり、LMSから入手できる。読み込んだデータはdfという名のオブジェクトとして作業環境内に格納しておこう。

Code 01

library(tidyverse) # or pacman::p_load(tidyverse)
df <- read_csv("Data/inference_data.csv")

df

# A tibble: 2,746 × 4
      ID Female   Age Temp_Ishin
   <dbl>  <dbl> <dbl>      <dbl>
 1     1      0    44         NA
 2     2      1    32         50
 3     3      1    53         20
 4     4      1    22          0
 5     5      1    27         NA
 6     6      1    28         NA
 7     7      0    28         30
 8     8      1    45         NA
 9     9      1    33         50
10    10      0    30         NA
# … with 2,736 more rows
…
