R for Political Science - 第12回講義資料
…
　ただし、調整変数が連続変数の場合は、-1、2、3.5以外の値を取ることもできる。\(Z\)が取り得るすべての値に対して回帰直線を計算することは出来ないため、いくつかの代表的な値に絞って計算する必要があろう。

推定

　それでは実際に推定してみよう。まず、実習データの中身を確認してみる。

Code 02

jes_df

# A tibble: 3,000 × 6
   TempKyosan Female   Age Satisfaction Interest Ideology
        <dbl>  <dbl> <dbl>        <dbl>    <dbl>    <dbl>
 1         20      1    69            4        4        9
 2         20      1    47            1        1        7
 3          0      1    37            3        3       11
 4          0      0    51            4        3       11
 5         20      0    38            2        3        7
 6          0      0    71            5        4       11
 7         10      0    47            3        3        9
 8          0      0    71            4        4       11
 9         25      0    75            3        4        9
10         40      1    66            2        3        6
# ℹ 2,990 more rows
…
