第6回講義資料 – R for Political Science
…
RStudioの右上に「Project: (None)」と表示されている場合は、プロジェクト機能を使用していないことを意味する。プロジェクト名が表示されていることを確認すること。

Code 01

# pacman::p_load(tidyverse, summarytools) でもOK
library(tidyverse)
library(summarytools)

# Gacha.csvがDataフォルダー内にあれば以下のコードでOK
# dataフォルダーならDataをdataに置換
gacha_df <- read_csv("Data/Gacha.csv")
gacha_df

# A tibble: 4,227 × 4
   player trial stone_type result
    <dbl> <dbl> <chr>      <chr> 
 1      1     1 paid       N     
 2      1     2 free       N     
 3      1     3 free       N     
 4      1     4 free       R     
 5      1     5 paid       R     
 6      1     6 free       R     
 7      1     7 free       R     
 8      1     8 free       R     
 9      1     9 free       R     
10      1    10 paid       N     
# ℹ 4,217 more rows
…
　考えてみれば、stone_typeとresultは数値型ではないため、記述統計量が計算できない。今回の場合、stone_type変数は使わないため、問題ないものの、resultはダミー変数に変換する必要があろう。ダミー変数については「ミクロ政治データ分析実習」の第10回と本講義の第4回を参照すること。

Code 03

gacha_df <- gacha_df |>
  mutate(result_N   = if_else(result == "N", 1, 0),
         result_R   = if_else(result == "R", 1, 0),
         result_SR  = if_else(result == "SR", 1, 0),
         result_SSR = if_else(result == "SSR", 1, 0))

gacha_df

# A tibble: 4,227 × 8
   player trial stone_type result result_N result_R result_SR result_SSR
    <dbl> <dbl> <chr>      <chr>     <dbl>    <dbl>     <dbl>      <dbl>
 1      1     1 paid       N             1        0         0          0
 2      1     2 free       N             1        0         0          0
 3      1     3 free       N             1        0         0          0
 4      1     4 free       R             0        1         0          0
 5      1     5 paid       R             0        1         0          0
 6      1     6 free       R             0        1         0          0
 7      1     7 free       R             0        1         0          0
 8      1     8 free       R             0        1         0          0
 9      1     9 free       R             0        1         0          0
10      1    10 paid       N             1        0         0          0
# ℹ 4,217 more rows

　ちなみに{fastDummies}パッケージのdummy_cols()（または、dummy_columns()）を使っても同じ結果が得られる。好きな方法を使えば良い。また、dummy_cols()関数から作成されたダミー変数の変数名は元の変数名_値となる。

Code 04

# 上記のコードは以下のように書くこともできる。
# ignore_na = TRUE を指定しない場合、欠損値か否かを示すダミー変数も生成される。
library(fastDummies)
gacha_df <- gacha_df |>
  dummy_cols(select_columns = "result", ignore_na = TRUE)

gacha_df

# A tibble: 4,227 × 8
   player trial stone_type result result_N result_R result_SR result_SSR
    <dbl> <dbl> <chr>      <chr>     <int>    <int>     <int>      <int>
 1      1     1 paid       N             1        0         0          0
 2      1     2 free       N             1        0         0          0
 3      1     3 free       N             1        0         0          0
 4      1     4 free       R             0        1         0          0
 5      1     5 paid       R             0        1         0          0
 6      1     6 free       R             0        1         0          0
 7      1     7 free       R             0        1         0          0
 8      1     8 free       R             0        1         0          0
 9      1     9 free       R             0        1         0          0
10      1    10 paid       N             1        0         0          0
# ℹ 4,217 more rows
…
