R for Political Science - 第8回講義資料
…
　まず、今回の実習に必要なパッケージ（{tidyverse}、{summarytools}、{modelsummary}）を読み込み、実習用データを読み込む。単回帰分析の実習用データはBeer.csvであり、LMSからダウンロード可能だ。以下のコードはBeer.csvがプロジェクト内のDataフォルダー内にアップロードされている場合の例である。データの保存先がDataフォルダーではない場合、適宜フォルダー名を修正すること。読み込んだデータはbeer_dfという名のオブジェクトとして作業環境内に格納する。

　データを読み込んだら、データの中身を出力する。

Code 01

library(tidyverse)
library(summarytools)
library(modelsummary)

beer_df <- read_csv("Data/Beer.csv")

beer_df

# A tibble: 69 × 5
    Year Month Temperature Icecream  Beer
   <dbl> <dbl>       <dbl>    <dbl> <dbl>
 1  2016     1         6.1      464   452
 2  2016     2         7.2      397   584
 3  2016     3        10.1      493   750
 4  2016     4        15.4      617   835
 5  2016     5        20.2      890   794
 6  2016     6        22.4      883   961
 7  2016     7        25.4     1292  1025
 8  2016     8        27.1     1387  1021
 9  2016     9        24.4      843   748
10  2016    10        18.7      621   730
# … with 59 more rows
…
重回帰分析

　以上の例のように、説明変数が1つのみの回帰分析は「単回帰分析」と呼ばれる。しかし、実際のデータ分析の場面において、ある応答変数を1つの変数だけで説明することは滅多になく、複数の説明変数を回帰式に投入する。このように説明変数が2つ以上の回帰分析を「重回帰分析」と呼ぶ。以下では重回帰分析の実装、解釈、モデル間の比較について解説する。

　まず、実習に必要なデータを読み込む。重回帰分析の実習用データはPrefData.csvであり、LMSからダウンロード可能だ。以下のコードはPrefData.csvがプロジェクト内のDataフォルダー内にアップロードされている場合の例である。データの保存先がDataフォルダーではない場合、適宜フォルダー名を修正すること。読み込んだデータはpref_dfという名のオブジェクトとして作業環境内に格納する。

　データを読み込んだら、データの中身を出力する。

Code 06

pref_df <- read_csv("Data/PrefData.csv")

pref_df

# A tibble: 47 × 6
      ID Pref      Jimin Zaisei Over65 Primary
   <dbl> <chr>     <dbl>  <dbl>  <dbl>   <dbl>
 1     1 Hokkaido   32.8  0.435   29.2    7.00
 2     2 Aomori     40.4  0.341   30.2   12.0 
 3     3 Iwate      34.9  0.352   30.5   10.6 
 4     4 Miyagi     36.7  0.614   25.9    4.36
 5     5 Akita      43.5  0.309   33.9    9.62
 6     6 Yamagata   42.5  0.351   30.9    9.19
 7     7 Fukushima  33.8  0.533   28.8    6.48
 8     8 Ibaraki    40.6  0.637   27.1    5.64
 9     9 Tochigi    38.8  0.640   26.3    5.52
10    10 Gunma      42.1  0.625   28.1    4.96
# … with 37 more rows
…
