R for Political Science - 第9回講義資料
…
セットアップ

　本日使用する3つのパッケージとデータ（JES6_W1.csv; LMSからダウンロード）を読み込む。読み込んだデータはjes_dfと名付けて作業スペース内に格納する。

Code 01

library(tidyverse)
library(fastDummies)
library(modelsummary)

jes_df  <- read_csv("Data/JES6_W1.csv")

jes_df

# A tibble: 3,000 × 8
   Temp_Rikken Ideology Interest Gender   Age Education   Job  Income
         <dbl>    <dbl>    <dbl>  <dbl> <dbl>     <dbl> <dbl>   <dbl>
 1          30        9        1      2    69         4     5 4333994
 2          50        7        4      2    47         3     1  979181
 3           0       11        2      2    37         2     1 8498127
 4          50       11        2      1    51         4     2 7572654
 5          30        7        2      1    38         4     1 6436713
 6           0       11        1      1    71         2     5 3410276
 7          10        9        2      1    47         3     2 8652860
 8           0       11        1      1    71         2     5  927703
 9          50        9        1      1    75         4     1 4497693
10          55        6        2      2    66         3     4 2419573
# ℹ 2,990 more rows
…
　それでは名目変数を含む重回帰分析を実装してみよう。重回帰モデルに名目変数を投入する方法する方法は実は簡単だ。それはlm()関数内のformulaにfactor化した名目変数を追加するだけである。Factor型変数が説明変数として投入されると、自動的にダミー変数に変換されてから投入される（つまり、ダミー変数に変換して一つ一つ投入しても問題ないということ）。ただし、全てのダミー変数が投入されるわけではなく、\(k-1\)個のダミー変数が投入されることには注意すること（\(k\)は当該factor型変数の水準数）。たとえば、性別（Gender）の場合、2つ値で構成されている変数であるため、ダミー変数も2つになるが、1つのみ投入される。同様に、職業（Job）変数も、1から6までの6つの値で構成されているため、ダミー変数も6つになるが、5つのみ投入される。ここで除外されたカテゴリーは「ベース・カテゴリー (base category)」、「参照カテゴリー/レファレンス・カテゴリー (reference category)」、「ベースライン (baseline)」などと呼ばれる（どの水準がベース・カテゴリーになるかは後述する）。

　それでは実装してみよう。GenderとJob変数はデータ上、まだ数値型変数であるため、これらをfactor化する。また、単純にfactor化するだけでなく、値にラベルも割り当てよう。factor()関数の第1引数はfactor化する変数名を入れる。第2引数以降はlevelsとlabelsを指定する（引数名を明記するため、順番は関係ない）。levelsは元の値、labelsにはそれぞれの値に割り当てるラベルである。

Code 05

jes_df <- jes_df |>
  mutate(Gender = factor(Gender, levels = 1:2, labels = c("Male", "Female")),
         Job    = factor(Job, levels = 1:6, labels = c("Salary", "Self", "Student", 
                                                       "House", "Retire", "Etc")))

jes_df

# A tibble: 3,000 × 8
   Temp_Rikken Ideology Interest Gender   Age Education Job     Income
         <dbl>    <dbl>    <dbl> <fct>  <dbl>     <dbl> <fct>    <dbl>
 1          30        9        1 Female    69         4 Retire 4333994
 2          50        7        4 Female    47         3 Salary  979181
 3           0       11        2 Female    37         2 Salary 8498127
 4          50       11        2 Male      51         4 Self   7572654
 5          30        7        2 Male      38         4 Salary 6436713
 6           0       11        1 Male      71         2 Retire 3410276
 7          10        9        2 Male      47         3 Self   8652860
 8           0       11        1 Male      71         2 Retire  927703
 9          50        9        1 Male      75         4 Salary 4497693
10          55        6        2 Female    66         3 House  2419573
# ℹ 2,990 more rows
…
　Incomeの傾き係数は約-1.538790e-07である。e-07は「\(\times\) 10-7」を意味し、ちなみに10-1は0.1、10-2は0.01である。つまり、-1.538790e-07は-1.538790e-07 = -1.538790 \(\times\) 10-7 = -0.000000153879である。この係数は「世帯収入が1円上がると、立憲民主党への感情温度が約0.000000153879度下がる」ことを意味する。Incomeの単位は1円であるため、係数そのまま解釈できる。しかし、これで良いだろうか。世帯収入（しかも年収）における1円の変動は無視できる微々たるものである。むしろ、1円の増加よりも100万円の増加の方が、より現実的な解釈であろう。この場合の解釈は「世帯収入が100万円上がると、立憲民主党への感情温度が-0.154度下がる」こととなる。Incomeの単位は1円であるため、係数に100万をかけるだけで良い（-0.000000153879 \(\times\) 1000000 = -0.153879）。しかし、解釈のたびに係数に100万をかけて解釈する必要があるのは非常に面倒であるし、0が多い分、計算ミスも生じやすい。したがって、Incomeの単位を予め100万円に変えておいた方が安全だろう。つまり、3000000（300万）を3に、12000000（1200万）を12に変換することである。

　Incomeを100万単位にするためには、Incomeを100万で割るだけで良い。ここではjes_dfのIncomeの値を100万で割り、Income_mという新しい変数として追加し、jes_df3という新しいデータフレームを作成。新しく追加される変数名は何でも良いが、ここではmillionの頭文字を使用する。

Code 16

jes_df3 <- jes_df |>
  mutate(Income_m = Income / 1000000)

jes_df3

# A tibble: 3,000 × 9
   Temp_Rikken Ideology Interest Gender   Age Education Job     Income Income_m
         <dbl>    <dbl>    <dbl> <fct>  <dbl>     <dbl> <fct>    <dbl>    <dbl>
 1          30        9        1 Female    69         4 Retire 4333994    4.33 
 2          50        7        4 Female    47         3 Salary  979181    0.979
 3           0       11        2 Female    37         2 Salary 8498127    8.50 
 4          50       11        2 Male      51         4 Self   7572654    7.57 
 5          30        7        2 Male      38         4 Salary 6436713    6.44 
 6           0       11        1 Male      71         2 Retire 3410276    3.41 
 7          10        9        2 Male      47         3 Self   8652860    8.65 
 8           0       11        1 Male      71         2 Retire  927703    0.928
 9          50        9        1 Male      75         4 Salary 4497693    4.50 
10          55        6        2 Female    66         3 House  2419573    2.42 
# ℹ 2,990 more rows
…
x3 * (-1)

[1]  3  2  1  0 -1 -2 -3

　それではIntrestを逆転して、もう一度推定してみよう。jes_df3のInterestの値を5から引き、Interest_rという新しい変数として追加し、jes_df3を上書きする。変数名は何でも良いが、ここではreverseの頭文字を使うとする。

Code 25

jes_df3 <- jes_df3 |>
  mutate(Interest_r = 5 - Interest)

jes_df3

# A tibble: 3,000 × 10
   Temp_Rikken Ideology Interest Gender   Age Education Job     Income Income_m
         <dbl>    <dbl>    <dbl> <fct>  <dbl>     <dbl> <fct>    <dbl>    <dbl>
 1          30        9        1 Female    69         4 Retire 4333994    4.33 
 2          50        7        4 Female    47         3 Salary  979181    0.979
 3           0       11        2 Female    37         2 Salary 8498127    8.50 
 4          50       11        2 Male      51         4 Self   7572654    7.57 
 5          30        7        2 Male      38         4 Salary 6436713    6.44 
 6           0       11        1 Male      71         2 Retire 3410276    3.41 
 7          10        9        2 Male      47         3 Self   8652860    8.65 
 8           0       11        1 Male      71         2 Retire  927703    0.928
 9          50        9        1 Male      75         4 Salary 4497693    4.50 
10          55        6        2 Female    66         3 House  2419573    2.42 
# ℹ 2,990 more rows
# ℹ 1 more variable: Interest_r <dbl>
…
