R for Political Science - 第12回講義資料
…
　本日使用するパッケージとLMSからダウンロードして実習用データを読み込む。読み込むデータはdfに格納し、中身を確認してみよう。

Code 01

library(tidyverse)
library(modelsummary)
library(summarytools)
library(marginaleffects)

df <- read_csv("Data/M1.csv")

df

# A tibble: 50 × 8
      No  Year Name               Duration First Final Order Score_Mean
   <dbl> <dbl> <chr>                 <dbl> <dbl> <dbl> <dbl>      <dbl>
 1    13  2017 ゆにばーす                5     1     0     1       89.4
 2    13  2017 カミナリ                  7     0     0     2       88.3
 3    13  2017 とろサーモン             16     1     1     3       92.1
 4    13  2017 スーパーマラドーナ       15     1     0     4       91.4
 5    13  2017 かまいたち               14     0     0     5       91.4
 6    13  2017 マヂカルラブリー         11     1     0     6       86.7
 7    13  2017 さや香                    4     1     0     7       89.7
 8    13  2017 ミキ                      6     1     1     8       92.9
 9    13  2017 和牛                     12     0     1     9       93.3
10    13  2017 ジャルジャル             15     0     0    10       90.9
# ℹ 40 more rows
…
